<svg xmlns="http://www.w3.org/2000/svg" width="400" height="300" viewBox="0 0 400 300">
  <g fill="none" stroke="#adb5bd" stroke-dasharray="2 2">
    <line x1="96.4" y1="269.3" x2="374.9" y2="269.3"/>
    <line x1="96.4" y1="259.9" x2="374.9" y2="259.9"/>
    <line x1="96.4" y1="232" x2="374.9" y2="232"/>
    <line x1="96.4" y1="221.9" x2="374.9" y2="221.9"/>
    <g fill="#343a40">
      <g>
        <path d="M134.1,224.6v6.8h-1.2v-5.5h-11v31.2h3.8v1.3h-8.8v-1.2h3.8V225.9h-11v5.5h-1.2v-6.8Z"/>
        <path d="M143,234.5h-3.3l7.8,19.3.9,2.5h.1v-.4l8.2-21.4h-3.3v-1.2H161v1.2h-2.7l-10.6,28a15.6,15.6,0,0,1-2.4,4.3,5.3,5.3,0,0,1-4.3,1.7h-1l-.8-.2.2-1.2h1.6a4.4,4.4,0,0,0,3.3-1.2,11,11,0,0,0,2.1-3.7l1.5-4.1-9.5-23.7h-2.7v-1.2H143Z"/>
        <path d="M163.3,266.7h3.8V234.5h-3.8v-1.2h4.7l.3,4.5a9.4,9.4,0,0,1,3.4-3.6,9.6,9.6,0,0,1,5.1-1.3,8.1,8.1,0,0,1,6.9,3.5q2.5,3.5,2.5,9.5v.5q0,5.8-2.5,9.2a8.1,8.1,0,0,1-6.9,3.4,10.6,10.6,0,0,1-5.1-1.2,8.8,8.8,0,0,1-3.4-3.2v12.3h3.8v1.3h-8.8ZM185,245.8a15.4,15.4,0,0,0-2.1-8.5,6.8,6.8,0,0,0-6.1-3.3,8.1,8.1,0,0,0-5.6,1.8,10.2,10.2,0,0,0-2.9,4.5v11.7a8.1,8.1,0,0,0,3.1,4,9.5,9.5,0,0,0,5.5,1.5,6.8,6.8,0,0,0,6-3.1,14.5,14.5,0,0,0,2.1-8.2Z"/>
        <path d="M191.1,245.3a13.2,13.2,0,0,1,3-9,10.7,10.7,0,0,1,15.8,0,13.2,13.2,0,0,1,3,9v1a13.2,13.2,0,0,1-3,9,10.7,10.7,0,0,1-15.8,0,13.2,13.2,0,0,1-3.1-9Zm1.2,1a12.3,12.3,0,0,0,2.6,8,9.3,9.3,0,0,0,14.1,0,12.3,12.3,0,0,0,2.6-8v-1a12.3,12.3,0,0,0-2.7-7.9,9.2,9.2,0,0,0-14.1,0,12.4,12.4,0,0,0-2.6,7.9Z"/>
      </g>
      <g>
        <path d="M216.4,245.7a19,19,0,0,1,2.1-6.8,12,12,0,0,1,4.1-4.6,9.8,9.8,0,0,1,5.6-1.5,6.8,6.8,0,0,1,5.7,2.7l.8-2.2h7l-4.1,24.1a11.8,11.8,0,0,1-4.5,8,14.2,14.2,0,0,1-9.4,2.8,13.4,13.4,0,0,1-4.8-1,10.4,10.4,0,0,1-4-2.9l3.6-4.5a6.6,6.6,0,0,0,5.2,2.6q5.1.1,6.4-5.4l.2-.8a7.8,7.8,0,0,1-5.7,2.5,7.7,7.7,0,0,1-4.2-1.2,8,8,0,0,1-2.9-3.4,13.4,13.4,0,0,1-1.2-5A21.7,21.7,0,0,1,216.4,245.7Zm7.5,2.5a6.1,6.1,0,0,0,.8,3.3,2.6,2.6,0,0,0,2.2,1.2,5.1,5.1,0,0,0,3.9-1.7l2-10.6a3.4,3.4,0,0,0-3.1-1.7,4.4,4.4,0,0,0-3.7,1.9,10.2,10.2,0,0,0-1.9,5.1Q223.9,247.2,223.9,248.2Z"/>
        <path d="M259.9,240.3l-2.4-.2a5.9,5.9,0,0,0-5.2,2.4l-2.8,15.9h-7.6l4.4-25h7.1l-.6,3.3q2.5-3.8,5.8-3.8l2.4.3Z"/>
        <path d="M272.9,258.3a6.8,6.8,0,0,1-.3-2.3,7.7,7.7,0,0,1-6.1,2.7,7.5,7.5,0,0,1-5.4-2.2,6.5,6.5,0,0,1-2-5.2,7.3,7.3,0,0,1,3.4-6.3q3.3-2.2,9-2.2h2.5l.3-1.4v-1.2a2,2,0,0,0-2.1-2.2q-2.5,0-3.1,2.8h-7.6a7.3,7.3,0,0,1,1.6-4.4,9.7,9.7,0,0,1,4.2-2.9,14.5,14.5,0,0,1,5.6-.9,11.2,11.2,0,0,1,5,1.2,7.4,7.4,0,0,1,3.2,3.1,8,8,0,0,1,.8,4.6L280,253.5v1.4a6.3,6.3,0,0,0,.4,2.9v.4Zm-4.4-5a4.9,4.9,0,0,0,4.1-2.1l.8-4h-2a5.2,5.2,0,0,0-3.1,1.1,4.1,4.1,0,0,0-1.6,2.8,2,2,0,0,0,.4,1.6A1.8,1.8,0,0,0,268.6,253.3Z"/>
        <path d="M308.2,245.8a20.8,20.8,0,0,1-2.1,7,11.4,11.4,0,0,1-3.9,4.6,9,9,0,0,1-5.2,1.4,6.8,6.8,0,0,1-5.3-2.6l-2.3,11.7h-7.6l6-34.7h7l-.4,2.4a7.4,7.4,0,0,1,5.9-2.8,7,7,0,0,1,5.7,2.6,11.6,11.6,0,0,1,2.2,7A27,27,0,0,1,308.2,245.8Zm-7.4-3.1q-.1-3.8-2.6-3.9a4.5,4.5,0,0,0-4,2l-1.8,9.9a3.1,3.1,0,0,0,3.2,2.1q4.1.1,5-7Q300.7,243.6,300.7,242.7Z"/>
        <path d="M320.5,236a8.2,8.2,0,0,1,6.5-3.2,6.5,6.5,0,0,1,5.6,2.8q1.8,2.7,1.3,7.2l-2.6,15.6h-7.6l2.6-15.7a8.2,8.2,0,0,0,0-1.5,2.3,2.3,0,0,0-2.5-2.4,4.9,4.9,0,0,0-3.7,1.5l-3.2,18h-7.6l6.2-35.5h7.6Z"/>
        <path d="M347.2,247.3l6.5-14h8.4l-14.7,28.8a12.6,12.6,0,0,1-3.8,4.9,8.6,8.6,0,0,1-5.1,1.5,14.4,14.4,0,0,1-3.4-.5l.6-5.6h.9a6.3,6.3,0,0,0,2.5-.5,3.8,3.8,0,0,0,1.8-1.7l1.1-2.1-4-24.9h7.9Z"/>
      </g>
    </g>
  </g>
  <g stroke="#343a40">
    <rect x="92.9" y="137.1" width="47.4" height="47.4" fill="#fff"/>
    <rect x="140.3" y="137.1" width="47.4" height="47.4" fill="#afd693"/>
    <rect x="140.3" y="89.7" width="47.4" height="47.4" fill="#28a750"/>
    <rect x="140.3" y="42.3" width="47.4" height="47.4" fill="#1e8b48"/>
    <rect x="187.7" y="137.1" width="47.4" height="47.4" fill="#75ceee"/>
    <rect x="187.7" y="89.7" width="47.4" height="47.4" fill="#4f63a8"/>
    <rect x="235.1" y="137.1" width="47.4" height="47.4" fill="#f1e4a0"/>
    <rect x="235.1" y="89.7" width="47.4" height="47.4" fill="#fcd232"/>
    <rect x="235.1" y="42.3" width="47.4" height="47.4" fill="#d6ba57"/>
    <rect x="282.5" y="137.1" width="47.4" height="47.4" fill="#fbba92"/>
    <rect x="282.5" y="89.7" width="47.4" height="47.4" fill="#f48e4e"/>
    <rect x="282.5" y="42.3" width="47.4" height="47.4" fill="#675143"/>
    <rect x="329.9" y="137.1" width="47.4" height="47.4" fill="#444"/>
    <rect x="329.9" y="89.7" width="47.4" height="47.4" fill="#000"/>
  </g>
  <g fill="#343a40">
    <path d="M69.5,141.1a6.1,6.1,0,0,0-3.5-5.6,4.3,4.3,0,0,0-4.3-4l-1,.2a4.2,4.2,0,0,0-6.9-2.7h0a4.3,4.3,0,1,0-8.7,0s.1.1.1.2a4.2,4.2,0,0,0-6.9,2.6l-1.7-.2a5.2,5.2,0,0,0-4.9,7.2,5.2,5.2,0,0,0,0,10,5.2,5.2,0,0,0,10-.8,4.2,4.2,0,0,0,2.3,1v17.3l-5.7,3.5H55.6l-5.6-3.5v-6.9a23.6,23.6,0,0,1,9.6-6.9,5.2,5.2,0,0,0,6.3-5.1,5.1,5.1,0,0,0,0-.6A6.1,6.1,0,0,0,69.5,141.1ZM50.1,156.8V144.8a5.3,5.3,0,0,0,4.6,2.7h1a5.2,5.2,0,0,0,2,3.9A25.2,25.2,0,0,0,50.1,156.8Z"/>
    <path d="M48.7,73.1c-7.2,0-15.5,4.4-15.5,15.5,0,7.6,11.9,24.2,15.5,28.6,3.2-4.4,15.5-20.7,15.5-28.6C64.2,77.4,55.9,73.1,48.7,73.1Z"/>
    <path d="M59.2,241h-21a3,3,0,0,1-3-3v-7.5a1.5,1.5,0,0,1,3,0V235h3v-3a3,3,0,0,1,6,0v3h3v-3a3,3,0,0,1,6,0v3h3v-4.5a1.5,1.5,0,0,1,3,0V238A3,3,0,0,1,59.2,241Zm9,31.5a1.5,1.5,0,0,1-1.5,1.5h-36a1.5,1.5,0,1,1,0-3h1.5a3,3,0,0,0,3-3s3-18,3-21a3,3,0,0,1,3-3h15a3,3,0,0,1,3,3c0,3,3,21,3,21a3,3,0,0,0,3,3h1.5a1.5,1.5,0,0,1,1.5,1.5Zm-15-12a4.5,4.5,0,0,0-9,0V271h9Z"/>
    <path d="M47,176.9a3.3,3.3,0,0,0-3.5,3.5v13.8H29.7a3.3,3.3,0,0,0-3.5,3.5v3.5a3.3,3.3,0,0,0,3.5,3.5H43.5v13.8a3.3,3.3,0,0,0,3.5,3.5h3.5a3.3,3.3,0,0,0,3.5-3.5V204.6H67.8a3.3,3.3,0,0,0,3.5-3.5v-3.5a3.3,3.3,0,0,0-3.5-3.5H53.9V180.3a3.3,3.3,0,0,0-3.5-3.5Z"/>
    <path d="M48.7,20.5l-26,12.1,6.9,3.1v5.9a5.1,5.1,0,0,0,0,9.7v.3l-3.1,7.3c-1,3.1-.3,6.6,4.8,6.6s5.9-3.5,4.8-6.6l-3.1-7.3a5.7,5.7,0,0,0,3.5-5.2,4.9,4.9,0,0,0-3.5-4.8V37.5l15.6,7.3,26-12.1ZM64,43,48.4,49.9l-8.3-3.8v.3a8.7,8.7,0,0,1-2.8,6.2l2.1,4.8v.3a8.5,8.5,0,0,1,.3,4.2,21.4,21.4,0,0,0,8.7,1.7C59.8,63.8,64,56.8,64,53.4V43Z"/>
  </g>
</svg>
