<?xml version="1.0" encoding="UTF-8" standalone="no"?>
<!-- Generator: Adobe Illustrator 26.0.0, SVG Export Plug-In . SVG Version: 6.00 Build 0)  -->

<svg
   version="1.1"
   id="CMYK"
   x="0px"
   y="0px"
   viewBox="0 0 200 200"
   xml:space="preserve"
   sodipodi:docname="CMYK_color_model.svg"
   width="200"
   height="200"
   inkscape:version="1.3.1 (91b66b0783, 2023-11-16)"
   xmlns:inkscape="http://www.inkscape.org/namespaces/inkscape"
   xmlns:sodipodi="http://sodipodi.sourceforge.net/DTD/sodipodi-0.dtd"
   xmlns="http://www.w3.org/2000/svg"
   xmlns:svg="http://www.w3.org/2000/svg"><defs
   id="defs7" /><sodipodi:namedview
   id="namedview7"
   pagecolor="#ffffff"
   bordercolor="#000000"
   borderopacity="0.25"
   inkscape:showpageshadow="2"
   inkscape:pageopacity="0.0"
   inkscape:pagecheckerboard="0"
   inkscape:deskcolor="#d1d1d1"
   inkscape:zoom="1.954"
   inkscape:cx="115.14841"
   inkscape:cy="151.22825"
   inkscape:window-width="2282"
   inkscape:window-height="1168"
   inkscape:window-x="152"
   inkscape:window-y="0"
   inkscape:window-maximized="0"
   inkscape:current-layer="CMYK" />
<style
   type="text/css"
   id="style1">
	.st0{fill:#EC008C;}
	.st1{fill:#00AEEF;}
	.st2{fill:#2E3192;}
	.st3{fill:#FFF200;}
	.st4{fill:#ED1C24;}
	.st5{fill:#00A651;}
	.st6{display:none;}
	.st7{display:inline;}
</style>
<g
   id="slices"
   transform="matrix(0.24871616,0,0,0.24871616,-25.547839,-29.017039)">
	<path
   class="st0"
   d="m 128.8,607.2 c 0,136.7 110.8,247.5 247.5,247.5 45.1,0 87.3,-12.1 123.7,-33.1 -74,-42.8 -123.7,-122.8 -123.7,-214.4 0,0 0,0 0,0 C 302.3,564.4 252.6,484.4 252.6,392.8 178.5,435.6 128.8,515.6 128.8,607.2 Z"
   id="path1" />
	<path
   class="st1"
   d="m 623.7,607.2 c 0,0 0,0 0,0 0,91.6 -49.8,171.6 -123.7,214.4 36.4,21.1 78.7,33.1 123.7,33.1 136.7,0 247.5,-110.8 247.5,-247.5 0,-91.6 -49.8,-171.6 -123.7,-214.4 0,91.6 -49.8,171.6 -123.8,214.4 z"
   id="path2" />
	<path
   class="st2"
   d="m 623.7,607.2 c 0,0 0,0 0,0 -36.4,21.1 -78.7,33.1 -123.7,33.1 -45,0 -87.3,-12.1 -123.7,-33.1 0,0 0,0 0,0 0,91.6 49.8,171.6 123.7,214.4 74,-42.8 123.7,-122.8 123.7,-214.4 z"
   id="path3" />
	<path
   class="st3"
   d="m 500,392.8 c 36.4,-21.1 78.7,-33.1 123.7,-33.1 45,0 87.3,12.1 123.7,33.1 0,0 0,0 0,0 0,-136.7 -110.8,-247.5 -247.5,-247.5 -136.7,0 -247.4,110.8 -247.4,247.5 0,0 0,0 0,0 36.4,-21.1 78.7,-33.1 123.7,-33.1 45,0 87.4,12.1 123.8,33.1 z"
   id="path4" />
	<path
   class="st4"
   d="m 376.3,607.2 c 0,-91.6 49.8,-171.6 123.7,-214.4 -36.4,-21.1 -78.7,-33.1 -123.7,-33.1 -45,0 -87.3,12.1 -123.7,33.1 -0.1,91.6 49.7,171.6 123.7,214.4 z"
   id="path5" />
	<path
   class="st5"
   d="m 500,392.8 c 74,42.8 123.7,122.8 123.7,214.4 74,-42.8 123.7,-122.8 123.7,-214.4 -36.4,-21.1 -78.7,-33.1 -123.7,-33.1 -45,0 -87.3,12.1 -123.7,33.1 z"
   id="path6" />
	<path
   d="m 623.7,607.2 c 0,-91.6 -49.8,-171.6 -123.7,-214.4 -74,42.8 -123.7,122.8 -123.7,214.4 36.4,21.1 78.7,33.1 123.7,33.1 45,0 87.3,-12.1 123.7,-33.1 z"
   id="path7" />
</g>
<g
   id="guides"
   class="st6">
	<g
   id="circles"
   class="st7">
	</g>
	<g
   id="lines"
   class="st7">
	</g>
</g>
</svg>
