<svg xmlns="http://www.w3.org/2000/svg" width="400" height="300" viewBox="0 0 400 300">
  <!-- <g>
    <g fill="#0065bd">
      <circle cx="58.2" cy="32.9" r="7.2"/>
      <circle cx="34.3" cy="47.3" r="7.2"/>
      <circle cx="46.3" cy="83.1" r="7.2"/>
      <circle cx="75" cy="66.4" r="7.2"/>
      <circle cx="84.5" cy="44.9" r="7.2"/>
      <circle cx="79.7" cy="99.8" r="7.2"/>
      <circle cx="27.2" cy="83.1" r="7.2"/>
      <circle cx="55.8" cy="59.2" r="7.2"/>
      <circle cx="98.9" cy="78.3" r="7.2"/>
    </g>
    <g fill="#a2ad00">
      <circle cx="69.3" cy="155.6" r="7.2"/>
      <circle cx="50.2" cy="174.7" r="7.2"/>
      <circle cx="83.7" cy="181.9" r="7.2"/>
      <circle cx="98" cy="162.8" r="7.2"/>
      <circle cx="43.1" cy="153.2" r="7.2"/>
      <circle cx="67" cy="193.8" r="7.2"/>
      <circle cx="59.8" cy="136.5" r="7.2"/>
      <circle cx="93.2" cy="141.3" r="7.2"/>
    </g>
    <g fill="#e37222">
      <circle cx="226" cy="56.4" r="7.2"/>
      <circle cx="199.7" cy="42.1" r="7.2"/>
      <circle cx="199.7" cy="42.1" r="7.2"/>
      <circle cx="180.6" cy="63.6" r="7.2"/>
      <circle cx="204.5" cy="80.3" r="7.2"/>
      <circle cx="226" cy="75.5" r="7.2"/>
      <circle cx="178.2" cy="94.7" r="7.2"/>
      <circle cx="175.8" cy="42.1" r="7.2"/>
      <circle cx="154.3" cy="75.5" r="7.2"/>
      <circle cx="221.2" cy="30.1" r="7.2"/>
      <circle cx="206.3" cy="104.8" r="7.2"/>
      <circle cx="197.3" cy="23" r="7.2"/>
      <circle cx="149.5" cy="49.3" r="7.2"/>
    </g>
  </g> -->
  <!-- <g fill="none" stroke-linecap="round">
    <g>
      <line x1="48.7" y1="52" x2="77.4" y2="80.7" stroke="#fff" stroke-width="4"/>
      <line x1="77.4" y1="52" x2="48.7" y2="80.7" stroke="#fff" stroke-width="4"/>
      <line x1="48.7" y1="52" x2="77.4" y2="80.7" stroke="#0065bd" stroke-width="2"/>
      <line x1="77.4" y1="52" x2="48.7" y2="80.7" stroke="#0065bd" stroke-width="2"/>
    </g>
    <g>
      <line x1="57.4" y1="148.4" x2="86.1" y2="177.1" stroke="#fff" stroke-width="4"/>
      <line x1="86.1" y1="148.4" x2="57.4" y2="177.1" stroke="#fff" stroke-width="4"/>
      <line x1="57.4" y1="148.4" x2="86.1" y2="177.1" stroke="#a2ad00" stroke-width="2"/>
      <line x1="86.1" y1="148.4" x2="57.4" y2="177.1" stroke="#a2ad00" stroke-width="2"/>
    </g>
    <g>
      <line x1="180.6" y1="46.9" x2="209.3" y2="75.5" stroke="#fff" stroke-width="4"/>
      <line x1="209.3" y1="46.9" x2="180.6" y2="75.5" stroke="#fff" stroke-width="4"/>
      <line x1="180.6" y1="46.9" x2="209.3" y2="75.5" stroke="#e37222" stroke-width="2"/>
      <line x1="209.3" y1="46.9" x2="180.6" y2="75.5" stroke="#e37222" stroke-width="2"/>
    </g>
  </g> -->
  <!-- <g>
    <g fill-opacity="0.25">
      <g fill="#0065bd">
        <circle cx="199.8" cy="216.9" r="47.5"/>
        <circle cx="234.6" cy="197.4" r="47.5"/>
        <circle cx="236.8" cy="228.7" r="47.5"/>
        <circle cx="272.2" cy="202.4" r="47.5"/>
        <circle cx="274.9" cy="236.9" r="47.5"/>
        <circle cx="303.3" cy="208.6" r="47.5"/>
      </g>
    </g>
    <g>
      <g fill="#0065bd">
        <circle cx="199.8" cy="216.9" r="7.2"/>
        <circle cx="234.6" cy="197.4" r="7.2"/>
        <circle cx="236.8" cy="228.7" r="7.2"/>
        <circle cx="272.2" cy="202.4" r="7.2"/>
        <circle cx="274.9" cy="236.9" r="7.2"/>
        <circle cx="303.3" cy="208.6" r="7.2"/>
      </g>
    </g>
  </g> -->
  <polyline points="50.0,283.80271004604356
53.03030303030303,282.453828481521
56.06060606060606,281.0236184402207
59.09090909090909,279.5103066825873
62.121212121212125,277.9123998287578
65.15151515151516,276.22871678689467
68.18181818181819,274.45842109296325
71.21212121212122,272.6010528266829
74.24242424242425,270.65655974757
77.27272727272728,268.62532727741365
80.3030303030303,266.5082069416867
83.33333333333333,264.306542872777
86.36363636363636,262.0221959729875
89.39393939393939,259.65756533538706
92.42424242424244,257.2156065261527
95.45454545454545,254.69984634329558
98.4848484848485,252.11439368381377
101.51515151515152,249.46394617447464
104.54545454545455,246.75379225061172
107.57575757575758,243.98980840245673
110.60606060606061,241.1784513494174
113.63636363636364,238.32674494907332
116.66666666666666,235.4422616990907
119.69696969696972,232.53309874624728
122.72727272727273,229.60784837670298
125.75757575757576,226.67556302484127
128.7878787878788,223.74571490365543
131.8181818181818,220.828150426881
134.84848484848487,217.93303966095175
137.87878787878788,215.0708211123915
140.9090909090909,212.25214222242113
143.93939393939394,209.48779600432147
146.96969696969697,206.7886543194058
150.0,204.1655983432943
153.03030303030306,201.62944682456884
156.06060606060606,199.19088278188843
159.0909090909091,196.86037932241652
162.12121212121212,194.6481252931918
165.15151515151516,192.5639514972247
168.1818181818182,190.61725821709473
171.21212121212122,188.8169447902839
174.24242424242425,187.17134197217177
177.27272727272728,185.68814780445842
180.3030303030303,184.37436767885998
183.33333333333334,183.23625924847607
186.36363636363637,182.27928279266806
189.3939393939394,181.50805758616713
192.42424242424244,180.9263247601656
195.45454545454547,180.53691707316915
198.4848484848485,180.34173593337658
201.51515151515153,180.34173593337658
204.54545454545456,180.53691707316915
207.5757575757576,180.9263247601656
210.6060606060606,181.50805758616713
213.63636363636365,182.27928279266808
216.66666666666669,183.2362592484761
219.69696969696972,184.37436767885998
222.72727272727275,185.68814780445842
225.75757575757575,187.17134197217177
228.7878787878788,188.8169447902839
231.8181818181818,190.61725821709473
234.84848484848487,192.5639514972247
237.87878787878788,194.6481252931918
240.90909090909093,196.86037932241655
243.93939393939397,199.19088278188846
246.96969696969697,201.62944682456884
250.00000000000003,204.16559834329436
253.03030303030303,206.78865431940582
256.0606060606061,209.48779600432147
259.0909090909091,212.25214222242113
262.1212121212121,215.07082111239157
265.1515151515152,217.93303966095178
268.1818181818182,220.828150426881
271.21212121212125,223.74571490365548
274.24242424242425,226.67556302484127
277.2727272727273,229.60784837670303
280.3030303030303,232.53309874624733
283.33333333333337,235.4422616990907
286.3636363636364,238.32674494907337
289.3939393939394,241.17845134941743
292.42424242424244,243.98980840245676
295.4545454545455,246.75379225061175
298.4848484848485,249.4639461744747
301.5151515151515,252.1143936838138
304.54545454545456,254.69984634329558
307.5757575757576,257.2156065261528
310.6060606060606,259.65756533538706
313.6363636363637,262.0221959729875
316.6666666666667,264.3065428727771
319.69696969696975,266.50820694168675
322.72727272727275,268.62532727741365
325.75757575757575,270.65655974757
328.7878787878788,272.601052826683
331.81818181818187,274.45842109296325
334.8484848484849,276.22871678689467
337.8787878787879,277.9123998287579
340.9090909090909,279.5103066825873
343.939393939394,281.02361844022073
346.969696969697,282.453828481521
350.0,283.80271004604356"
  style="fill:none;stroke:#e37222;stroke-width:3" />
  <polyline points="50.0,283.8 100,283.8 100,203.8 300,203.8 300,283.8 350,283.8"
  style="fill:none;stroke:#a2ad00;stroke-width:3" />

  <g stroke="#0065bd" fill="#b1d1f7" stroke-width="4">
      <polyline points="50.0,283.8 350,283.8" stroke-dasharray="15,10">
      </polyline>
  </g>

   <g stroke="#0065bd" fill="#b1d1f7" stroke-width="4">
      <polyline points="200,150 200,400" stroke-dasharray="15,10">
      </polyline>
  </g>

  <g fill-opacity="0.25">
      <g fill="#e37222">
        <circle cx="124.8" cy="66.9" r="40"/>
        <circle cx="159.6" cy="47.4" r="40"/>
        <circle cx="161.8" cy="78.7" r="40"/>
        <circle cx="197.2" cy="52.4" r="40"/>
        <circle cx="199.9" cy="86.9" r="40"/>
        <circle cx="228.3" cy="58.6" r="40"/>
        <circle cx="230.3" cy="92.6" r="40"/>
        <circle cx="263.3" cy="63.6" r="40"/>
        
      </g>
    </g>
    <g>
      <g fill="#e37222">
        <circle cx="124.8" cy="66.9" r="7.2"/>
        <circle cx="159.6" cy="47.4" r="7.2"/>
        <circle cx="161.8" cy="78.7" r="7.2"/>
        <circle cx="197.2" cy="52.4" r="7.2"/>
        <circle cx="199.9" cy="86.9" r="7.2"/>
        <circle cx="228.3" cy="58.6" r="7.2"/>
        <circle cx="230.3" cy="92.6" r="7.2"/>
        <circle cx="263.3" cy="63.6" r="7.2"/>
      </g>
    </g>
</svg>
