<?xml version="1.0" encoding="utf-8"?>
<!-- Generator: Adobe Illustrator 16.0.3, SVG Export Plug-In . SVG Version: 6.00 Build 0)  -->
<!DOCTYPE svg PUBLIC "-//W3C//DTD SVG 1.1//EN" "http://www.w3.org/Graphics/SVG/1.1/DTD/svg11.dtd">
<svg version="1.1" id="svg1" xmlns:svg="http://www.w3.org/2000/svg"
	 xmlns="http://www.w3.org/2000/svg" xmlns:xlink="http://www.w3.org/1999/xlink" x="0px" y="0px" width="1275px" height="354px"
	 viewBox="0 0 1275 354" enable-background="new 0 0 1275 354" xml:space="preserve">
<line fill="none" stroke="#010202" stroke-width="2" stroke-linecap="round" stroke-linejoin="round" stroke-miterlimit="10" x1="36.5" y1="120.904" x2="1223.4" y2="120.904"/>
<polygon fill="#2166AF" stroke="#E37322" stroke-width="3" stroke-linecap="round" stroke-linejoin="round" stroke-miterlimit="10" points="
	1029.149,315.886 772.345,293.022 772.345,42.436 1029.149,35.851 "/>
<polygon fill="#3E84C6" stroke="#E37220" stroke-width="3" stroke-linecap="round" stroke-linejoin="round" stroke-miterlimit="10" points="
	1143.103,40.973 1029.149,35.851 1029.149,315.886 1143.103,295.766 "/>
<polygon fill="#1D65AF" stroke="#E37220" stroke-width="2" stroke-linecap="round" stroke-linejoin="round" stroke-miterlimit="10" points="
	644.675,220.772 521.941,209.799 521.941,90.175 644.675,86.883 "/>
<polygon fill="#3E84C6" stroke="#E37220" stroke-width="2" stroke-linecap="round" stroke-linejoin="round" stroke-miterlimit="10" points="
	698.998,89.443 644.675,86.883 644.675,220.772 698.998,211.077 "/>
<polygon fill="#1D65AF" stroke="#E37220" stroke-linecap="round" stroke-linejoin="round" stroke-miterlimit="10" points="
	423.719,170.289 343.238,163.157 343.238,84.505 423.719,82.493 "/>
<polygon fill="#3E84C6" stroke="#E37220" stroke-linecap="round" stroke-linejoin="round" stroke-miterlimit="10" points="
	459.386,84.14 423.719,82.493 423.719,170.289 459.386,163.888 "/>
<polygon fill="#1D65AF" stroke="#E37220" stroke-linecap="round" stroke-linejoin="round" stroke-miterlimit="10" points="
	273.551,144.681 224.897,140.475 224.897,93.102 273.551,91.821 "/>
<polygon fill="#3E84C6" stroke="#E37220" stroke-linecap="round" stroke-linejoin="round" stroke-miterlimit="10" points="
	294.951,92.735 273.551,91.821 273.551,144.681 294.951,140.842 "/>
<polygon fill="#1D65AF" stroke="#E37220" stroke-width="0.5" stroke-linecap="round" stroke-linejoin="round" stroke-miterlimit="10" points="
	150.087,129.867 116.432,126.939 116.432,94.2 150.087,93.285 "/>
<polygon fill="#3E84C6" stroke="#E37220" stroke-width="0.5" stroke-linecap="round" stroke-linejoin="round" stroke-miterlimit="10" points="
	164.901,94.016 150.087,93.285 150.087,129.867 164.901,127.305 "/>
</svg>
