<?xml version="1.0" encoding="UTF-8" standalone="no"?>
<!-- Created with Inkscape (http://www.inkscape.org/) -->

<svg
   width="80mm"
   height="65mm"
   viewBox="0 0 80 65"
   version="1.1"
   id="svg337"
   inkscape:version="1.2.1 (9c6d41e410, 2022-07-14)"
   sodipodi:docname="needle_deviation.svg"
   xmlns:inkscape="http://www.inkscape.org/namespaces/inkscape"
   xmlns:sodipodi="http://sodipodi.sourceforge.net/DTD/sodipodi-0.dtd"
   xmlns="http://www.w3.org/2000/svg"
   xmlns:svg="http://www.w3.org/2000/svg">
  <sodipodi:namedview
     id="namedview339"
     pagecolor="#ffffff"
     bordercolor="#000000"
     borderopacity="0.25"
     inkscape:showpageshadow="2"
     inkscape:pageopacity="0.0"
     inkscape:pagecheckerboard="0"
     inkscape:deskcolor="#d1d1d1"
     inkscape:document-units="mm"
     showgrid="false"
     inkscape:zoom="2.3786088"
     inkscape:cx="101.31973"
     inkscape:cy="162.27973"
     inkscape:window-width="1920"
     inkscape:window-height="1094"
     inkscape:window-x="3829"
     inkscape:window-y="952"
     inkscape:window-maximized="1"
     inkscape:current-layer="layer1" />
  <defs
     id="defs334" />
  <g
     inkscape:label="Ebene 1"
     inkscape:groupmode="layer"
     id="layer1">
    <g
       id="path1921"
       transform="matrix(0.39444326,0,0,-0.32372746,9.2406528,57.733797)"
       style="opacity:1">
      <path
         style="color:#000000;fill:#343a40;stroke-width:0.897"
         d="M 67.629839,85.86912 45.9007,82.75293"
         id="path1925" />
      <path
         style="color:#000000;fill:#343a40"
         d="m 45.964844,82.308594 -0.126953,0.888672 c 6.945774,2.523732 14.221669,3.396859 21.728515,3.115234 l 0.126953,-0.886719 c -7.242838,0.204247 -14.485677,-0.96472 -21.728515,-3.117187 z"
         id="path1927"
         sodipodi:nodetypes="ccccc" />
    </g>
    <g
       id="g149"
       transform="matrix(0.42422208,0,0,-0.38192475,36.086425,62.070714)"
       style="opacity:1">
      <path
         d="m 0,0 v 128.039 13.16 z"
         style="fill:#ffffff;fill-opacity:1;fill-rule:nonzero;stroke:none"
         id="path151" />
    </g>
    <path
       d="m 32.807825,32.304071 h 7.582546 v 7.724046 h -7.582546 z"
       style="fill:#ffffff;fill-opacity:1;fill-rule:nonzero;stroke:none;stroke-width:0.402519;opacity:1"
       id="path183" />
    <g
       id="g225"
       transform="matrix(0.42422208,0,0,-0.38192475,14.133781,14.337873)"
       style="opacity:1">
      <path
         d="m 0,0 4.958,1.979 0.42,-8.421 z"
         style="fill:#ffffff;fill-opacity:1;fill-rule:nonzero;stroke:none"
         id="path227" />
    </g>
    <path
       style="fill:#a2ad00;stroke:#a2ad00;stroke-width:0.611565;stroke-dasharray:none;opacity:1"
       d="M 36.165878,62.105849 16.537906,16.929621"
       id="path1817" />
    <path
       style="opacity:1;fill:#0065bd;fill-opacity:1;stroke:#e37222;stroke-width:0.614516;stroke-dasharray:none;stroke-opacity:1"
       d="m 36.155113,61.855845 0.02208,-47.06671"
       id="path1817-1-2"
       inkscape:transform-center-x="47.027253"
       inkscape:transform-center-y="8.704281" />
    <path
       style="fill:#a2ad00;stroke:#a2ad00;stroke-width:0.607009;stroke-dasharray:none;opacity:1"
       d="m 15.365781,17.168012 2.215175,-0.820241 -2.465275,-2.573302 z"
       id="path2182" />
    <path
       style="opacity:0.4;fill:#0065bd;fill-opacity:1;stroke:#0065bd;stroke-width:0.607009;stroke-dasharray:none;stroke-opacity:1"
       d="m 59.751806,16.616417 2.111266,1.030359 0.638459,-3.346125 z"
       id="path2182-3" />
    <path
       style="opacity:1;fill:#e37222;fill-opacity:1;stroke:#e37222;stroke-width:0.607009;stroke-dasharray:none;stroke-opacity:1"
       d="m 34.972729,14.500461 2.39411,0.06562 -1.083179,-3.255297 z"
       id="path2182-3-7"
       inkscape:transform-center-x="0.021594439"
       inkscape:transform-center-y="-0.52552008" />
    <g
       id="path608"
       transform="matrix(0.4096885,0,0,-0.25656027,8.6964775,55.348379)"
       style="opacity:0.4;stroke-width:1.02284;stroke-dasharray:none">
      <path
         style="color:#000000;fill:#343a40;stroke-width:1.02284;stroke-dasharray:none"
         d="M 55.417726,60.771127 94.496485,56.223165"
         id="path1292" />
      <path
         style="color:#000000;fill:#343a40;stroke-width:1.02284;stroke-dasharray:none"
         d="m 94.439453,55.738281 c -12.7118,8.429588 -25.731101,10.094156 -39.078125,4.548828 l 0.113281,0.96875 c 14.852376,6.397839 27.554102,3.476197 39.078125,-4.548828 z"
         id="path1294"
         sodipodi:nodetypes="ccccc" />
    </g>
    <g
       id="path608-8"
       transform="matrix(0.40959147,0.07558413,0.06269623,-0.25555658,14.269874,32.635102)"
       style="opacity:0.4;stroke-width:1.02284;stroke-dasharray:none">
      <path
         style="color:#000000;fill:#343a40;stroke-width:1.02284;stroke-dasharray:none"
         d="M 55.417726,60.771127 94.496485,56.223165"
         id="path1292-9" />
      <path
         style="color:#000000;fill:#343a40;stroke-width:1.02284;stroke-dasharray:none"
         d="m 94.439453,55.738281 c -12.7118,8.429588 -25.731101,10.094156 -39.078125,4.548828 l 0.113281,0.96875 c 14.852376,6.397839 27.554102,3.476197 39.078125,-4.548828 z"
         id="path1294-8"
         sodipodi:nodetypes="ccccc" />
    </g>
    <path
       style="opacity:0.4;fill:#343a40;fill-opacity:1;stroke:#343a40;stroke-width:0.392455;stroke-dasharray:none;stroke-opacity:1"
       d="m 31.484551,40.434473 -0.53593,-1.624395 -2.983338,1.688728 z"
       id="path1350" />
    <path
       style="opacity:0.4;fill:#343a40;fill-opacity:1;stroke:#343a40;stroke-width:0.392455;stroke-dasharray:none;stroke-opacity:1"
       d="m 40.79012,22.034167 -0.267849,-1.677294 -3.224399,1.280196 z"
       id="path1350-0" />
    <path
       style="fill:#343a40;fill-opacity:1;stroke:#343a40;stroke-width:0.392455;stroke-dasharray:none;stroke-opacity:1;opacity:1"
       d="m 27.707161,31.702289 -0.64428,-1.592173 -2.864189,1.848385 z"
       id="path1350-2" />
    <text
       xml:space="preserve"
       style="font-style:normal;font-variant:normal;font-weight:normal;font-stretch:normal;font-size:4.02519px;font-family:Arial;-inkscape-font-specification:'Arial, Normal';font-variant-ligatures:normal;font-variant-caps:normal;font-variant-numeric:normal;font-variant-east-asian:normal;fill:#343a40;fill-opacity:1;stroke:#343a40;stroke-width:0;stroke-dasharray:none;stroke-opacity:1;opacity:1"
       x="8.7612648"
       y="11.205233"
       id="text2190"
       transform="scale(1.0539201,0.94883854)"><tspan
         sodipodi:role="line"
         id="tspan2242"
         x="8.7612648"
         y="11.205233"
         style="stroke-width:0">MagN</tspan></text>
    <text
       xml:space="preserve"
       style="font-style:normal;font-variant:normal;font-weight:normal;font-stretch:normal;font-size:4.02519px;font-family:Arial;-inkscape-font-specification:'Arial, Normal';font-variant-ligatures:normal;font-variant-caps:normal;font-variant-numeric:normal;font-variant-east-asian:normal;opacity:1;fill:#343a40;fill-opacity:1;stroke:#343a40;stroke-width:0;stroke-dasharray:none;stroke-opacity:1"
       x="30.22509"
       y="8.6909924"
       id="text2190-0"
       transform="scale(1.0539201,0.94883854)"><tspan
         sodipodi:role="line"
         id="tspan2221"
         x="30.22509"
         y="8.6909924"
         style="stroke-width:0">GriN</tspan></text>
    <text
       xml:space="preserve"
       style="font-style:normal;font-variant:normal;font-weight:normal;font-stretch:normal;font-size:4.02519px;font-family:Arial;-inkscape-font-specification:'Arial, Normal';font-variant-ligatures:normal;font-variant-caps:normal;font-variant-numeric:normal;font-variant-east-asian:normal;opacity:0.4;fill:#343a40;fill-opacity:1;stroke:#343a40;stroke-width:0;stroke-dasharray:none;stroke-opacity:1"
       x="54.004704"
       y="12.142878"
       id="text2190-1"
       transform="scale(1.0539201,0.94883854)"><tspan
         sodipodi:role="line"
         id="tspan2240"
         x="54.004704"
         y="12.142878"
         style="stroke-width:0">GeoN</tspan></text>
    <text
       xml:space="preserve"
       style="font-style:normal;font-variant:normal;font-weight:normal;font-stretch:normal;font-size:4.02518px;font-family:Arial;-inkscape-font-specification:'Arial, Normal';font-variant-ligatures:normal;font-variant-caps:normal;font-variant-numeric:normal;font-variant-east-asian:normal;fill:#343a40;fill-opacity:1;stroke:#343a40;stroke-width:0;stroke-dasharray:none;stroke-opacity:1;opacity:1"
       x="27.842499"
       y="30.478205"
       id="text2246"
       transform="scale(1.0539201,0.94883854)"><tspan
         sodipodi:role="line"
         id="tspan2244"
         style="stroke-width:0"
         x="27.842499"
         y="30.478205">d</tspan></text>
    <text
       xml:space="preserve"
       style="font-style:normal;font-variant:normal;font-weight:normal;font-stretch:normal;font-size:4.02518px;font-family:Arial;-inkscape-font-specification:'Arial, Normal';font-variant-ligatures:normal;font-variant-caps:normal;font-variant-numeric:normal;font-variant-east-asian:normal;opacity:0.4;fill:#343a40;fill-opacity:1;stroke:#343a40;stroke-width:0;stroke-dasharray:none;stroke-opacity:1"
       x="35.705116"
       y="39.874996"
       id="text2250"
       transform="scale(1.0539201,0.94883854)"><tspan
         sodipodi:role="line"
         id="tspan2248"
         style="stroke-width:0"
         x="35.705116"
         y="39.874996">δ</tspan></text>
    <text
       xml:space="preserve"
       style="font-style:normal;font-variant:normal;font-weight:normal;font-stretch:normal;font-size:4.02518px;font-family:Arial;-inkscape-font-specification:'Arial, Normal';font-variant-ligatures:normal;font-variant-caps:normal;font-variant-numeric:normal;font-variant-east-asian:normal;opacity:0.4;fill:#343a40;fill-opacity:1;stroke:#343a40;stroke-width:0;stroke-dasharray:none;stroke-opacity:1"
       x="44.718369"
       y="20.985558"
       id="text2254"
       transform="scale(1.0539201,0.94883854)"><tspan
         sodipodi:role="line"
         id="tspan2252"
         style="stroke-width:0"
         x="44.718369"
         y="20.985558">γ</tspan></text>
    <path
       style="opacity:0.4;fill:#0065bd;fill-opacity:1;stroke:#0065bd;stroke-width:0.631995;stroke-dasharray:none;stroke-opacity:1"
       d="M 36.133524,62.22884 60.769378,17.403527"
       id="path1817-1"
       inkscape:transform-center-x="46.509268"
       inkscape:transform-center-y="-10.395884" />
  </g>
</svg>
