<?xml version="1.0" encoding="utf-8"?>
<svg version="1.1"
	 id="svg1" xmlns:inkscape="http://www.inkscape.org/namespaces/inkscape"  xmlns:svg="http://www.w3.org/2000/svg" 
	 xmlns="http://www.w3.org/2000/svg" xmlns:xlink="http://www.w3.org/1999/xlink" x="0px" y="0px" width="400px" height="300px"
	 viewBox="0 0 400 300" enable-background="new 0 0 400 300" xml:space="preserve">

	<rect id="rect30" x="121.493" y="28.441" fill="#0065BD" fill-opacity="0.15" width="264.813" height="132.368"/>
	<path fill="#97BDD9" d="M386.308,77.435c-0.344-0.097,0.277-0.208,0-0.271c-0.502-0.115-1.021-0.161-1.528-0.222
		c-0.424-0.049-0.858-0.083-1.272-0.188c-0.563-0.142-1.118-0.423-1.646-0.664c-2.597-1.188-4.986-2.784-7.349-4.375
		c-1.157-0.779-2.273-1.627-3.587-2.125c-0.474-0.179-0.948-0.294-1.356-0.597c-0.572-0.428-1.146-0.851-1.726-1.271
		c-2.269-1.646-4.578-3.232-6.941-4.737c-1.22-0.777-2.453-1.533-3.7-2.266c-1.261-0.741-2.53-1.547-3.866-2.147
		c-1.135-0.509-2.364-0.669-3.514-1.114c-0.448-0.173-0.87-0.5-1.292-0.739c-0.606-0.346-1.228-0.67-1.868-0.951
		c-1.184-0.519-2.521-0.991-3.825-1.006c-1.357-0.014-2.658,0.473-3.838,1.108c-2.451,1.324-4.637,3.225-6.627,5.159
		c-0.447,0.436-0.854,0.886-1.166,1.432c-0.163,0.287-0.247,0.385-0.521,0.567c-0.294,0.195-0.591,0.389-0.898,0.566
		c-0.455,0.263-1.031,0.602-1.564,0.639c-0.511,0.036-1.023,0.031-1.535,0.075c-1.391,0.121-2.521,0.65-3.77,1.234
		c-0.64,0.299-1.282,0.588-1.924,0.885c-0.16,0.074-0.318,0.148-0.478,0.223c-0.137-0.018-0.273-0.033-0.41-0.043
		c-0.329-0.025-0.66-0.021-0.988,0.015c-1.234,0.139-2.228,0.755-3.049,1.66c-0.189,0.21-0.262,0.26-0.542,0.3
		c-0.276,0.039-0.552,0.074-0.828,0.115c-0.667,0.097-1.334,0.22-1.969,0.452c-0.575,0.21-1.112,0.508-1.565,0.922
		c-0.202,0.185-0.378,0.503-0.632,0.597c-0.353,0.129-0.706,0.256-1.059,0.384c-1.296,0.471-2.62,0.944-3.701,1.826
		c-1.026,0.84-1.825,1.905-2.561,2.999c-0.136,0.199-0.264,0.402-0.401,0.598c-0.316,0.132-0.633,0.261-0.95,0.39
		c-0.635,0.258-1.271,0.512-1.909,0.763c-0.507,0.199-1.133,0.215-1.67,0.284c-0.738,0.093-1.479,0.167-2.224,0.215
		c-0.537,0.035-1.085,0.068-1.623,0.027c-0.393-0.027-0.896-0.417-1.228-0.6c-1.138-0.628-2.267-1.087-3.509-1.465
		c-0.325-0.1-0.354-0.151-0.531-0.437c-0.169-0.274-0.367-0.529-0.591-0.76c-0.441-0.456-0.979-0.811-1.572-1.035
		c-1.219-0.463-2.604-0.429-3.887-0.452c-1.487-0.026-2.976-0.022-4.463-0.076c-0.649-0.024-4.629-3.455-5.834-4
		c-2.568-1.159-5.047,0.425-6.927,2.093c-0.926,0.821-1.758,1.7-2.782,2.397c-1.133,0.772-2.268,1.563-3.479,2.208
		c-1.109,0.591-2.454,0.68-3.646,1.082c-1.253,0.422-2.456,0.984-3.49,1.816c-0.469,0.376-0.9,0.792-1.344,1.198
		c-0.404,0.372-0.845,0.492-1.366,0.656c-1.315,0.415-2.646,0.807-3.867,1.459c-0.324,0.173-0.482,0.154-0.841,0.159
		c-0.257,0.003-0.513,0.025-0.765,0.069c-0.692,0.121-1.356,0.411-1.987,0.715c-0.476,0.229-0.933,0.5-1.414,0.711
		c-0.424,0.185-0.906,0.161-1.355,0.117c-2.67-0.264-5.241-1.781-7.459-3.187c-1.172-0.743-2.307-1.542-3.414-2.374
		c-1.028-0.771-1.996-1.651-3.129-2.269c-1.071-0.584-2.232-0.944-3.354-1.416c-1.044-0.439-1.724-1.334-2.521-2.108
		c-1.022-0.992-2.088-1.957-3.272-2.753c-1.151-0.774-2.42-1.301-3.74-1.711c-1.233-0.382-2.538-0.885-3.818-1.063
		c-0.553-0.077-1.111-0.08-1.667-0.06c-0.479,0.016-0.905-0.491-1.317-0.734c-1.17-0.687-2.516-1.11-3.731-1.717
		c-1.173-0.585-2.321-1.219-3.476-1.838c-1.188-0.639-2.438-1.482-3.771-1.774c-0.505-0.111-1.075-0.036-1.555-0.208
		c-0.732-0.264-1.482-0.478-2.245-0.637c-2.771-0.575-5.623-0.35-8.313,0.495c-1.326,0.417-2.605,0.971-3.84,1.608
		c-0.611,0.315-1.213,0.652-1.806,1.003c-0.289,0.171-0.576,0.346-0.862,0.523c-0.352,0.219-0.626,0.299-1.03,0.387
		c-1.354,0.297-2.679,0.767-3.84,1.538c-0.545,0.362-1.054,0.786-1.496,1.268c-0.21,0.229-0.404,0.472-0.58,0.729
		c-0.094,0.138-0.182,0.279-0.263,0.424c-0.189,0.058-0.382,0.113-0.573,0.165c-2.291,0.62-5.011,0.8-6.601,2.768
		c-0.311,0.383-1.086,0.585-1.532,0.777c-0.66,0.284-1.322,0.562-1.967,0.875c-0.578,0.282-1.143,0.594-1.676,0.955
		c-0.282,0.19-0.556,0.394-0.815,0.611c-0.121,0.102-0.238,0.209-0.349,0.32c-0.217,0.214-0.241,0.206-0.547,0.152
		c-1.214-0.214-2.357-0.592-3.554-0.874c-1.39-0.327-2.793-0.602-4.195-0.873c-2.531-0.489-5.067-0.955-7.609-1.379
		c-0.922-0.153-1.854-0.124-2.782-0.045c-0.341,0.029-0.684,0.068-1.026,0.073c-0.337,0.005-0.632-0.21-0.907-0.387
		c-1.6-1.029-2.927-2.43-4.445-3.568c-0.347-0.26-0.733-0.466-1.142-0.611c-0.189-0.067-0.382-0.119-0.578-0.16
		c-0.173-0.182-0.349-0.36-0.538-0.524c-0.612-0.534-1.354-0.855-2.119-1.108c-0.408-0.135-0.823-0.25-1.24-0.353
		c-0.228-0.055-0.457-0.106-0.687-0.156c-0.163-0.229-0.333-0.453-0.513-0.669c-0.627-0.755-1.358-1.451-2.167-2.009
		c0,3.784,0,7.567,0,11.351c0,5.375,0,10.749,0,16.123c0,0.599,0,1.197,0,1.795c1.073-0.042,2.306-0.179,3.365,0.064
		c1.12,0.257,2.154,0.694,3.309,0.842c2.798,0.359,5.663-0.032,8.473-0.051c6.003-0.041,12.005-0.356,18.01-0.259
		c1.458,0.024,2.918,0.072,4.374,0.159c0.647,0.039,1.294,0.086,1.941,0.137c0.57,0.295,1.188,0.476,1.809,0.631
		c2.739,0.688,5.457,0.729,8.263,0.631c1.115-0.04,2.234-0.086,3.352-0.011c1.438,0.095,2.866,0.281,4.292,0.479
		c2.553,0.353,5.108,0.736,7.688,0.808c1.269,0.036,2.443-0.054,3.45-0.916c0.884-0.754,1.371-1.869,1.357-3.026
		c0.76,0.006,1.521,0.014,2.282,0.02c2.146,0.02,4.292,0.04,6.438,0.059c3.329,0.031,6.659,0.061,9.987,0.091
		c4.31,0.04,8.619,0.079,12.929,0.117c5.087,0.046,10.174,0.092,15.263,0.139c5.661,0.051,11.322,0.103,16.985,0.154
		c6.034,0.055,12.069,0.109,18.104,0.165c6.204,0.056,12.407,0.112,18.612,0.168c6.172,0.057,12.343,0.113,18.514,0.169
		c5.937,0.054,11.871,0.107,17.808,0.161c5.498,0.05,10.995,0.1,16.493,0.15c4.854,0.044,9.713,0.088,14.568,0.131
		c4.014,0.037,8.026,0.073,12.039,0.109c2.968,0.027,5.935,0.055,8.9,0.081c1.718,0.016,3.437,0.031,5.154,0.047
		c0.352,0.002,0.703,0.005,1.055,0.009c0-4.618,0-9.235,0-13.854C386.308,78.335,386.308,77.885,386.308,77.435z"/>
	<path fill="#71A7D2" d="M386.308,76.705c-0.302-0.314,0.313-0.674,0-0.991c-0.037-0.105,0.008-0.211-0.039-0.324
		c-0.042-0.103-0.094-0.203-0.149-0.299c-0.146-0.256-0.326-0.493-0.515-0.721c-0.362-0.442-0.757-0.854-1.13-1.287
		c-0.318-0.37-0.834-0.873-0.881-1.376c-0.117-1.265-0.591-2.481-1.521-3.373c-0.208-0.198-0.433-0.378-0.675-0.534
		c-0.18-0.116-0.156-0.44-0.188-0.646c-0.1-0.635-0.23-1.265-0.444-1.872c-0.447-1.267-1.29-2.334-2.059-3.419
		c-0.614-0.867-1.159-1.848-2.031-2.486c-1.093-0.798-2.498-1.029-3.801-0.698c-1.271,0.324-2.351,1.127-3.307,1.996
		c-0.994,0.906-1.891,1.909-2.814,2.884c-0.184,0.193-0.366,0.386-0.558,0.571c-0.215,0.21-0.51,0.321-0.773,0.463
		c-0.628,0.338-1.248,0.693-1.867,1.048c-1.018,0.586-2.028,1.22-3.139,1.612c-1.328,0.469-2.686,0.853-4.021,1.303
		c-1.371,0.462-2.743,0.968-4.015,1.667c-0.563,0.31-1.106,0.661-1.604,1.072c-0.229,0.189-0.446,0.393-0.648,0.609
		c-0.158,0.167-0.141,0.263-0.375,0.17c-0.219-0.086-0.438-0.168-0.659-0.246c-2.71-0.952-5.846-1.417-8.673-0.729
		c-2.711,0.66-4.435,2.582-5.637,5.002c-0.233,0.47-0.445,0.958-0.716,1.41c-0.236,0.399-0.596,0.726-0.925,1.049
		c-0.943,0.933-1.909,1.836-2.678,2.927c-0.375,0.531-0.731,1.073-1.088,1.614c-0.769,0.036-1.535,0.087-2.297,0.19
		c-1.261,0.169-2.522,0.497-3.527,1.315c-0.259,0.21-0.493,0.447-0.696,0.711c-0.139,0.18-0.135,0.282-0.374,0.288
		c-0.173,0.005-0.346,0.01-0.519,0.014c-0.78,0.022-1.562,0.042-2.342,0.059c-0.664,0.015-1.33,0.027-1.994,0.035
		c-0.305,0.004-0.608,0.006-0.911,0.007c-0.364,0.001-0.517-0.183-0.813-0.374c-1.1-0.701-2.367-0.844-3.644-0.857
		c-1.423-0.015-2.847,0.087-4.265,0.2c-0.719,0.058-1.437,0.122-2.153,0.191c-0.354,0.034-0.706,0.069-1.062,0.106
		c-0.174,0.018-0.348,0.036-0.521,0.055c-0.252,0.026-0.382-0.132-0.582-0.276c-1.058-0.76-2.099-1.509-3.075-2.369
		c-0.396-0.349-0.807-0.708-1.282-0.946c-0.195-0.098-0.512-0.09-0.489-0.309c0.033-0.326,0.024-0.656-0.022-0.98
		c-0.177-1.17-0.899-2.216-1.933-2.794c-0.933-0.523-2.064-0.635-3.082-0.309c-0.992,0.319-1.694,1.087-2.471,1.744
		c-0.902,0.767-2.583,4.187-2.755,4.346c-0.462,0.429-0.925,0.855-1.341,1.33c-0.712-1.078-1.698-1.849-2.766-2.559
		c-1.079-0.718-2.213-1.444-3.385-2.003c-0.296-0.141-0.599-0.264-0.905-0.372c-0.305-0.106-0.549-0.423-0.787-0.639
		c-0.47-0.424-0.948-0.838-1.438-1.24c-0.973-0.801-1.987-1.553-3.052-2.23c-1.146-0.729-2.414-1.578-3.798-1.711
		c-1.197-0.116-2.342,0.268-3.341,0.906c-1.191,0.112-2.392-0.06-3.586,0.07c-1.303,0.141-2.578,0.573-3.594,1.422
		c-0.521,0.436-0.953,0.968-1.436,1.444c-0.198,0.197-0.403,0.395-0.632,0.557c-0.299,0.215-0.799,0.273-1.151,0.358
		c-1.519,0.398-3.052,0.664-4.504,1.289c-1.159,0.499-2.308,1.138-2.903,2.301c-0.265,0.516-0.411,1.092-0.427,1.671
		c-0.008,0.292,0.019,0.586,0.076,0.872c0.023,0.117-3.427,0.807-3.464,0.86c-2.197-1.697-1.23-2.511-3.956-2.799
		c-0.68-1.191-1.358-2.367-2.438-3.242c-0.47-0.38-2.738-4.458-3.396-5.367c-0.141-0.194-0.3-0.373-0.474-0.538
		c-0.08-0.258-0.163-0.517-0.25-0.774c-0.221-0.651-0.472-1.292-0.781-1.905c-0.603-1.185-1.498-2.12-2.838-2.414
		c-1.127-0.25-2.217,0.048-3.188,0.632c-1.16,0.694-2.258,1.511-3.343,2.317c-1.041,0.775-1.909,1.619-2.632,2.704
		c-0.297,0.449-0.555,0.936-0.893,1.358c-0.523,0.282-1.029,0.584-1.478,0.98c-0.476,0.421-0.873,0.923-1.162,1.489
		c-0.145,0.284-0.264,0.58-0.355,0.884c-0.05,0.159-0.091,0.32-0.126,0.481c-0.15,0.119-0.303,0.236-0.455,0.349
		c-1.133,0.833-2.347,1.565-3.588,2.219c-0.257,0.135-0.47,0.229-0.748,0.293c-0.306,0.069-0.577-0.065-0.877-0.124
		c-0.324-0.063-0.652-0.098-0.981-0.104c-0.167-0.004-0.335,0-0.503,0.011c-0.135-0.187-0.271-0.374-0.402-0.563
		c-0.383-0.544-0.759-1.092-1.131-1.645c-0.086-0.126-0.172-0.253-0.258-0.379c0.088-0.105,0.17-0.215,0.244-0.33
		c0.172-0.259-4.175-6.672-5.972-4.876c0.051-0.05,0.103-0.098,0.155-0.145c-0.881,0.729-1.903,1.381-2.915,1.9
		c-0.554,0.285-1.062,0.656-1.512,1.088c-0.49,0.447-1.19,0.773-1.752,1.129c-0.526,0.332-1.052,0.662-1.585,0.983
		c-0.199,0.12-0.478,0.059-0.709,0.072c-0.376,0.021-0.75,0.083-1.113,0.187c-1.259,0.359-2.397,0.978-3.387,1.833
		c-0.376,0.325-0.695,0.661-1.149,0.873c-0.652,0.305-1.325,0.57-1.999,0.821c-0.398,0.149-0.893,0.417-1.319,0.452
		c-0.541,0.044-1.075,0.12-1.596,0.275c-0.631,0.188-1.229,0.469-1.803,0.791c-0.264,0.148-0.521,0.308-0.775,0.474
		c-0.246,0.162-0.818-0.029-1.135-0.018c-0.588,0.021-1.168,0.168-1.696,0.424c-0.232,0.112-0.462,0.242-0.667,0.399
		c-0.16,0.122-0.699-0.402-0.896-0.526c-1.035-0.653-2.208-0.954-3.372-1.283c-0.461-0.13-0.854-0.764-1.159-1.117
		c-0.444-0.517-0.877-1.044-1.303-1.578c-1.704-2.12-4.19-3.795-6.557-5.085c-2.401-1.309-5.324-2.426-8.071-1.617
		c-1.347,0.396-2.462,1.254-3.278,2.387c-0.376,0.523-0.681,1.094-0.925,1.69c-0.215,0.529-0.771,0.901-1.062,1.422
		c-0.124,0.222-0.229,0.456-0.313,0.697c-0.045,0.133-0.085,0.268-0.12,0.405c-0.133,0.092-0.269,0.182-0.404,0.271
		c-0.52,0.34-1.057,0.744-1.618,1.008c-0.4,0.186-0.924,0.185-1.354,0.242c-0.67,0.088-1.339,0.198-1.989,0.39
		c-1.194,0.355-2.279,1.023-3.408,1.541c-1.063,0.486-2.175,0.814-3.254,1.249c-0.305,0.122-0.602,0.259-0.891,0.409
		c-0.159,0.082-0.314,0.168-0.473,0.254c-0.07-0.115-0.141-0.23-0.21-0.345c-0.321-0.528-0.636-1.062-0.947-1.597
		c-0.684-1.174-1.364-2.351-2.082-3.503c-0.668-1.076-1.37-2.131-2.13-3.145c-0.266-0.355-0.679-0.725-0.877-1.119
		c-0.277-0.628-0.578-1.257-0.965-1.827c-1.446-2.15-4.455-2.568-6.29-0.633c-0.431,0.453-0.787,0.961-1.126,1.482
		c-0.172,0.264-0.225,0.332-0.529,0.399c-0.36,0.08-0.712,0.185-1.06,0.309c-0.22,0.078-1.054,0.24-1.054,0.524
		c0,1.055,0,2.109,0,3.165c0,5.151,0,10.303,0,15.455c0,5.831,0,11.661,0,17.492c0,0.414-0.013,7.44,0.011,7.44
		c0.656,0,1.312,0,1.969,0c1.708,0,3.415,0,5.123,0c2.649,0,5.299,0,7.948,0c3.479,0,6.962,0,10.442,0c4.202,0,8.405,0,12.607,0
		c4.813,0,9.628,0,14.441,0c5.316,0,10.633,0,15.947,0c5.707,0,11.414,0,17.121,0c5.987,0,11.976,0,17.964,0
		c6.158,0,12.317,0,18.478,0c6.222,0,12.44,0,18.661,0c6.172,0,12.344,0,18.515,0c6.013,0,12.023,0,18.035,0
		c5.743,0,11.486,0,17.229,0c5.364,0,10.729,0,16.093,0c4.874,0,9.748,0,14.623,0c4.275,0,8.55,0,12.826,0c3.564,0,7.132,0,10.697,0
		c2.744,0,5.491,0,8.238,0c1.816,0,3.634,0,5.449,0c0.776,0,1.554,0,2.331,0c0.156,0,0.063-0.832,0.063-0.96
		c0-1.644,0-3.289,0-4.933c0-5.651,0-11.301,0-16.951c0-5.449,0-10.898,0-16.348C386.308,79.791,386.308,78.248,386.308,76.705z
		 M373.492,75.956c-0.014-0.095-0.026-0.189-0.044-0.284c0.233-0.021,0.244-0.004,0.438,0.148
		C373.753,75.858,373.621,75.906,373.492,75.956C373.489,75.929,373.622,75.905,373.492,75.956z"/>
	<path fill="#458BC8" d="M386.308,102.133c-0.286-0.158,0.369-0.368,0-0.548c-0.356-0.173-0.777-0.242-1.16-0.333
		c-0.468-0.111-0.938-0.215-1.399-0.352c-0.588-0.173-1.139-0.455-1.713-0.666c-2.516-0.92-5.17-1.149-7.752-1.791
		c-1.348-0.335-2.67-0.79-4.004-1.17c-1.397-0.4-2.803-0.782-4.21-1.151c-1.387-0.363-2.798-0.666-4.168-1.092
		c-1.301-0.406-2.563-0.918-3.839-1.402c-1.347-0.511-2.718-1.027-4.13-1.33c-1.202-0.258-2.421-0.306-3.639-0.433
		c-1.151-0.12-2.28-0.444-3.402-0.718c-0.457-0.112-0.848-0.479-1.308-0.638c-0.468-0.163-0.965-0.237-1.448-0.328
		c-1.163-0.217-2.314-0.468-3.503-0.46c-1.378,0.01-2.758,0.171-4.125,0.349c-2.854,0.373-5.717,0.85-8.516,1.524
		c-1.296,0.313-2.504,0.756-3.661,1.427c-0.196,0.114-0.207,0.216-0.372,0.018c-0.112-0.136-0.228-0.27-0.346-0.401
		c-0.229-0.256-0.473-0.502-0.722-0.739c-0.521-0.497-1.076-0.958-1.652-1.389c-0.501-0.375-1.019-0.727-1.547-1.063
		c-0.263-0.167-0.379-0.246-0.504-0.527c-0.139-0.309-0.287-0.613-0.455-0.907c-0.642-1.118-1.561-2.038-2.646-2.728
		c-1.076-0.684-2.279-1.149-3.499-1.509c-1.281-0.376-2.584-0.295-3.851,0.108c-1.283,0.408-2.472,1.076-3.623,1.764
		c-0.561,0.336-1.113,0.683-1.675,1.022c-0.259,0.157-0.519,0.311-0.784,0.456c-0.236,0.13-0.646-0.009-0.915-0.026
		c-1.082-0.068-2.045,0.175-3.01,0.654c-1.039,0.517-2.085,1.021-3.133,1.522c-2.166,1.037-4.338,2.063-6.479,3.155
		c-1.045,0.532-2.083,1.081-3.108,1.653c-0.267,0.149-0.41,0.243-0.712,0.245c-0.247,0.002-0.494,0.025-0.737,0.067
		c-0.504,0.09-0.987,0.267-1.439,0.504c-1.673,0.877-3.177,2.504-3.135,4.491c-0.522-0.061-1.038-0.179-1.562-0.246
		c-0.707-0.089-1.399-0.106-2.085-0.322c-1.188-0.374-2.251-1.069-3.321-1.688c-2.406-1.389-4.93-2.433-7.729-2.624
		c-1.423-0.097-2.848-0.01-4.267,0.092c-0.668,0.047-1.336,0.097-2.005,0.119c-0.304,0.009-0.606,0.014-0.911,0.005
		c-0.151-0.004-0.305-0.012-0.456-0.022c-0.229-0.017-0.332-0.233-0.476-0.403c-1.626-1.902-3.634-4.233-6.338-4.329
		c-1.326-0.046-2.565,0.51-3.506,1.427c-0.45,0.438-0.825,0.944-1.155,1.477c-0.283,0.458-0.489,1.168-0.906,1.498
		c-1.005,0.793-1.603,1.969-1.839,3.209c-0.524,0.293-0.993,0.666-1.42,1.087c-0.185,0.183-0.36,0.375-0.536,0.566
		c-0.17,0.187-0.365,0.213-0.604,0.292c-2.476,0.816-4.139,2.944-5.76,4.862c-0.3,0.354-0.6,0.724-0.941,1.036
		c-0.176,0.159-0.375,0.292-0.576,0.417c-0.252,0.159-0.643,0.018-0.93-0.034c-1.248-0.224-2.472-0.576-3.675-0.975
		c-2.555-0.846-5.063-1.84-7.685-2.464c-1.368-0.325-2.756-0.563-4.149-0.758c-0.59-0.083-1.213-0.104-1.785-0.274
		c-0.633-0.186-1.233-0.471-1.832-0.741c-2.674-1.203-5.454-1.791-8.324-2.309c-0.647-0.117-1.295-0.235-1.939-0.367
		c-0.308-0.063-0.613-0.13-0.919-0.202c-0.337-0.079-0.655-0.4-0.953-0.583c-1.191-0.738-2.536-1.186-3.884-1.546
		c-2.616-0.702-5.32-1.198-8.021-1.378c-2.889-0.192-5.781-0.292-8.669-0.491c-0.622-0.042-1.241-0.089-1.86-0.145
		c-0.214-0.021-0.245,0.024-0.345-0.173c-0.07-0.142-0.148-0.28-0.233-0.414c-0.181-0.285-0.392-0.551-0.628-0.792
		c-0.425-0.435-0.929-0.785-1.466-1.065c-0.536-0.279-1.135-0.436-1.607-0.814c-0.559-0.447-1.117-0.896-1.66-1.362
		c-0.554-0.474-1.055-1.023-1.625-1.476c-0.941-0.748-2.145-1.057-3.311-1.248c-2.409-0.393-5.587-0.637-7.624,0.983
		c-0.511,0.407-0.946,0.925-1.342,1.442c-0.143,0.186-0.27,0.465-0.485,0.556c-0.118,0.05-0.232,0.104-0.346,0.164
		c-0.187-0.088-0.376-0.166-0.572-0.223c-1.149-0.337-2.385-0.304-3.516,0.088c-2.699,0.936-4.271,3.547-5.852,5.746
		c-0.316,0.441-0.641,0.877-0.987,1.296c-0.137,0.163-0.134,0.214-0.36,0.202c-0.179-0.01-0.358-0.02-0.538-0.029
		c-0.419-0.022-0.838-0.046-1.257-0.068c-1.472-0.079-2.946-0.152-4.422-0.157c-0.421-0.002-0.692-0.052-1.099-0.166
		c-0.226-0.063-0.457-0.116-0.688-0.157c-0.242-0.133-0.49-0.252-0.744-0.36c-0.6-0.255-1.228-0.419-1.847-0.621
		c-0.696-0.226-1.325-0.72-1.916-1.138c-0.76-0.536-1.508-1.087-2.291-1.586c-3.231-2.058-7.024-2.761-10.717-3.538
		c0,1.901,0,3.802,0,5.703c0,4.714,0,9.428,0,14.143c0,6.045,0,12.09,0,18.135c0,5.892,0,11.786,0,17.678c0,4.26,0,8.518,0,12.775
		c0,1.053,0,2.104,0,3.157c0,0.127-0.097,0.543,0.072,0.543c0.793,0,1.587,0,2.38,0c1.832,0,3.663,0,5.494,0
		c2.759,0,5.521,0,8.278,0c3.577,0,7.154,0,10.73,0c4.285,0,8.571,0,12.856,0c4.882,0,9.765,0,14.647,0c5.369,0,10.74,0,16.11,0
		c5.748,0,11.496,0,17.245,0c6.014,0,12.03,0,18.047,0c6.172,0,12.344,0,18.519,0c6.22,0,12.439,0,18.66,0
		c6.157,0,12.314,0,18.474,0c5.983,0,11.968,0,17.952,0c5.702,0,11.404,0,17.105,0c5.309,0,10.617,0,15.926,0
		c4.808,0,9.611,0,14.417,0c4.193,0,8.386,0,12.578,0c3.47,0,6.939,0,10.408,0c2.636,0,5.271,0,7.908,0c1.691,0,3.386,0,5.078,0
		c0.64,0,1.277,0,1.918,0c0.016,0,0.008-6.579,0.008-6.959c0-5.625,0-11.246,0-16.871c0-5.751,0-11.501,0-17.253
		c0-2.688,0-5.377,0-8.065c0-0.001,0-0.001,0-0.002c0.015,0.009,0,0.069,0,0.083L386.308,102.133L386.308,102.133z M246.613,93.64
		c-0.002,0.001-0.016,0.006-0.026,0.01C246.619,93.636,246.63,93.633,246.613,93.64z M258.139,95.43c0,0-0.002-0.002-0.003-0.003
		C258.156,95.446,258.152,95.444,258.139,95.43z"/>
	<path fill="#1E75C0" d="M386.308,135.078c-0.09-0.118,0.076-0.335,0.073-0.467c-0.004-0.237-0.171-0.331-0.086-0.589
		c0.07-0.217,0.155-0.436,0.013-0.647c-0.146-0.214-0.161-0.466-0.111-0.711c0.09-0.441,0.338-0.864,0.283-1.326
		c-0.026-0.217-0.241-0.44-0.201-0.648c0.042-0.219,0.029-0.344,0.029-0.548c0-0.785,0-1.571,0-2.356c0-2.625,0-5.249,0-7.874
		c0-0.173,0.076-0.33-0.113-0.33c-0.564,0-1.129,0-1.692,0c-0.716,0-1.431,0-2.145,0c-0.196,0-0.393,0-0.587,0
		c-0.238,0-0.501-0.766-0.611-0.967c-1.356-2.498-2.729-4.997-4.333-7.346c-1.583-2.318-3.424-4.585-5.803-6.126
		c-2.299-1.491-4.901-1.774-7.437-0.687c-2.422,1.039-4.354,2.945-6.151,4.818c-0.363,0.379-0.723,0.761-1.089,1.138
		c-0.517,0.214-1.048,0.385-1.563,0.602c-0.573,0.242-1.13,0.529-1.635,0.895c-0.264,0.191-0.515,0.402-0.741,0.638
		c-0.189,0.198-0.539,0.12-0.809,0.121c-2.737,0.004-5.473-0.02-8.209-0.041c0.072,0,0.146,0.001,0.218,0.002
		c-0.741-0.006-1.48-0.012-2.223-0.018c0.073,0.001,0.146,0.002,0.219,0.002c-0.862-0.014-1.66,0.014-2.479-0.319
		c-1.172-0.477-2.221-1.234-3.271-1.925c-2.265-1.485-4.7-2.955-7.504-2.833c-1.29,0.056-2.524,0.394-3.774,0.688
		c-1.138,0.267-2.407,0.171-3.566,0.151c-1.398-0.023-2.81-0.076-4.195-0.265c-0.586-0.08-1.03-0.317-1.563-0.572
		c-0.688-0.328-1.379-0.65-2.064-0.979c-1.228-0.59-2.463-1.199-3.585-1.976c-0.52-0.359-1.003-0.699-1.617-0.881
		c-0.28-0.082-0.501-0.379-0.715-0.576c-0.284-0.259-0.57-0.515-0.863-0.763c-0.994-0.844-2.056-1.615-3.199-2.244
		c-1.057-0.581-2.255-1.175-3.482-1.208c-0.63-0.016-1.268,0.055-1.892,0.121c-0.643,0.067-1.299,0.128-1.913,0.335
		c-1.172,0.395-1.969,1.352-2.716,2.29c-0.347,0.434-0.674,0.88-1,1.327c-0.516,0.316-1.056,0.592-1.586,0.878
		c-1.202,0.65-2.411,1.317-3.484,2.17c-1.044,0.829-1.908,1.84-2.388,3.097c-0.229,0.601-0.379,1.228-0.511,1.855
		c-0.058,0.273-0.109,0.548-0.166,0.823c-0.045,0.223-0.644,0.121-0.859,0.121c-1.314,0.008-2.612,0.103-3.824,0.657
		c-0.536,0.246-1.035,0.561-1.508,0.913c-0.17,0.126-0.35,0.331-0.563,0.347c-0.342,0.026-0.686,0.038-1.027,0.044
		c-1.399,0.029-2.804-0.014-4.199-0.095c-0.568-0.034-1.078-0.083-1.626-0.245c-0.697-0.207-1.384-0.45-2.063-0.713
		c-1.339-0.521-2.646-1.12-3.953-1.712c-0.586-0.265-1.17-0.576-1.794-0.739c-0.629-0.165-1.286-0.206-1.933-0.238
		c-2.224-0.112-4.498-0.128-6.717,0.069c-2.219,0.19-4.361,1.14-6.521,1.65c-0.424,0.1-0.938,0.288-1.375,0.254
		c-0.38-0.03-0.757-0.083-1.138-0.112c-1.082-0.082-2.103,0.037-3.127,0.397c-2.125,0.749-4.309,1.366-5.691,3.273
		c-0.272-0.366-0.375-0.926-0.619-1.334c-0.387-0.645-0.773-1.29-1.161-1.937c-0.358-0.598-0.718-1.196-1.076-1.794
		c-0.146-0.241-0.355-0.438-0.482-0.687c-0.145-0.283-0.299-0.56-0.473-0.825c-0.32-0.487-0.707-0.931-1.168-1.29
		c-0.498-0.389-1.094-0.611-1.568-1.033c-0.944-0.837-1.551-2.026-2.105-3.138c-0.553-1.105-1.464-1.875-2.493-2.519
		c-0.34-0.213-0.592-0.65-0.832-0.966c-0.41-0.54-0.816-1.082-1.263-1.593c-0.836-0.955-1.767-1.618-2.862-2.236
		c-1.208-0.68-2.242-1.601-3.402-2.348c-1.137-0.732-2.451-1.144-3.771-1.389c-0.682-0.126-1.368-0.208-2.06-0.262
		c-0.284-0.021-0.587,0.02-0.82-0.145c-0.323-0.225-0.656-0.431-0.995-0.628c-0.514-0.296-1.037-0.568-1.556-0.856
		c-0.403-0.225-0.663-0.75-0.97-1.094c-0.931-1.044-2.104-1.753-3.448-2.135c-2.784-0.792-5.529,0.097-7.85,1.68
		c-1.091,0.744-2.089,1.61-3.148,2.397c-0.875,0.65-1.784,1.033-2.78,1.458c-0.585,0.25-1.173,0.521-1.706,0.87
		c-0.225,0.148-0.436,0.315-0.631,0.498c-0.229,0.214-0.432,0.559-0.724,0.669c-1.354,0.51-2.632,1.209-3.875,1.946
		c-0.557,0.33-1.087,0.685-1.678,0.946c-0.58,0.256-1.116,0.608-1.611,1.001c-0.836,0.662-1.504,1.478-1.736,2.54
		c-0.12,0.55-0.121,1.126,0.005,1.676c0.051,0.226,0.142,0.246-0.073,0.392c-0.151,0.101-0.3,0.204-0.45,0.308
		c-0.35,0.243-0.694,0.491-1.036,0.747c-0.944,0.71-2.216,1.021-3.308,1.427c-1.303,0.482-2.582,1.035-3.714,1.851
		c-0.172,0.125-0.216,0.208-0.436,0.182c-0.166-0.02-0.332-0.041-0.499-0.061c-0.338-0.042-0.677-0.085-1.015-0.127
		c-0.779-0.099-1.558-0.202-2.336-0.307c-0.633-0.086-1.265-0.173-1.897-0.265c-0.291-0.042-0.58-0.085-0.87-0.13
		c-0.189-0.03-0.485-0.021-0.642-0.137c-0.38-0.282-0.7-0.655-1.063-0.961c-0.492-0.414-1.027-0.775-1.604-1.063
		c-0.549-0.275-1.146-0.44-1.757-0.501c-0.289-0.029-0.58-0.035-0.869-0.022c-0.147,0.007-0.295,0.02-0.44,0.034
		c-0.244,0.026-0.292-0.009-0.507-0.133c-1.092-0.63-2.453-0.709-3.683-0.81c-2.777-0.226-5.78-0.192-8.459,0.654
		c-1.209,0.382-2.231,1.061-3.355,1.618c-0.428,0.213-1.131-0.015-1.603-0.022c-0.675-0.009-1.323,0.096-1.973,0.268
		c-1.398,0.372-2.766,0.86-4.105,1.402c-0.563,0.229-1.125,0.467-1.682,0.713c-0.545,0.051-1.103-0.001-1.646-0.022
		c-1.36-0.056-2.608,0.079-3.903,0.519c-0.604,0.205-1.195,0.445-1.786,0.682c-0.106,0.042-1.084,0.359-1.084,0.417
		c0,0.763,0,1.526,0,2.289c0,4.542,0,9.084,0,13.626c0,6.096,0,12.191,0,18.289c0,4.689,0,9.379,0,14.07c0,0.891,0,1.785,0,2.676
		c0,0.104,0.229,0.053,0.313,0.053c1.031,0,2.063,0,3.093,0c2.046,0,4.091,0,6.136,0c2.948,0,5.897,0,8.847,0
		c3.742,0,7.485,0,11.227,0c4.428,0,8.854,0,13.278,0c5,0,10,0,14.999,0c5.463,0,10.926,0,16.389,0c5.817,0,11.634,0,17.449,0
		c6.061,0,12.119,0,18.18,0c6.191,0,12.386,0,18.577,0c6.217,0,12.433,0,18.647,0c6.129,0,12.258,0,18.387,0
		c5.934,0,11.864,0,17.796,0c5.625,0,11.25,0,16.874,0c5.208,0,10.415,0,15.623,0c4.68,0,9.36,0,14.04,0c4.043,0,8.087,0,12.129,0
		c3.296,0,6.591,0,9.887,0c2.438,0,4.876,0,7.313,0c1.471,0,2.94,0,4.411,0c0.339,0,0.677,0,1.015,0
		c0.304,0,0.207-0.074,0.207-0.412c0-4.893,0-9.787,0-14.682C386.308,142.169,386.308,138.624,386.308,135.078z M354.04,112.638
		c0.008-0.001,0.012-0.001,0.012-0.001S354.046,112.637,354.04,112.638z M343.655,112.628
		C343.662,112.628,343.663,112.628,343.655,112.628L343.655,112.628z M283.806,112.822L283.806,112.822
		C283.801,112.83,283.802,112.829,283.806,112.822z"/>

		<path fill="#0065BD" d="M386.308,136.323c-0.877-2.281-3.54,0.236-4.394,1.807c-0.458-3.731-2.046-0.98-3.979,0.611
			c0.146,0.252-4.234-7.208-4.087-0.721c-0.041-1.791,0.418-3.475,0.519-5.227c-1.204,0.133-2.842,2.341-3.55,3.168
			c-0.551-1.451-0.191-3.302-0.865-4.981c-0.559-0.24-0.816-0.008-0.774,0.698c-0.113,0,0.11-2.117,0.103-2.12
			c-0.15-0.047-0.342-0.071-0.307,0.14c-0.128,0.536-0.333,1.333-0.641,1.806c0.05-2.925-3.587,5.249-2.218,2.448
			c0.269-1.665-0.255-2.971-1.191-4.688c-0.841,0.523-1.021,0.766-1.577,2.061c0.098-1.175,0.898-3.197-0.154-3.909
			c-0.938,0.887-1.592,1.979-1.957,3.277c0.003-1.238-0.223-2.435-0.676-3.589c-0.728-1.082-2.814,4.41-2.918,4.767
			c-0.531-4.753-0.533-5.375-4.137-0.87c0.04-0.395,1.059-3.802-0.206-3.838c-0.494,0.646-0.934,1.334-1.313,2.057
			c0.031-0.067,0.076-0.126,0.136-0.171c-0.239,0.479-1.354,3.146-2.047,3.395c-0.714,0.257-0.918-3.587-0.625-3.62
			c-0.199,0.053-0.324-0.074-0.373-0.381c-0.381-0.251-2.862,4.866-2.719,4.52c-0.298-1.921,0.628-4.274,0.073-6.061
			c-0.122-0.106-0.261-0.189-0.415-0.251c-0.558,0.053-1.233,2.402-1.308,2.736c-0.102-2.351-0.646-3-1.821-1.358
			c0.012-0.112,0.703-5.008-0.505-5.424c-0.409-0.14-1.91,5.402-1.979,5.653c-0.025-0.194-0.224-0.352-0.028-0.501
			c-0.181,0.202-0.33,0.109-0.452-0.279c-0.037-0.032-0.657,1.752-0.69,1.862c-0.138-3.577-1.922-2.572-2.994-0.476
			c-0.142-5.56-3.048,1.174-3.366,2.191c-0.163-0.292-0.441-4.222-0.914-3.531c-0.555,0.38-0.03,2.715-0.739,3.379
			c-0.996,0.936-2.351-4.749-3.408-4.839c-0.688-0.06-2.015,2.518-2.475,2.887c0.049-0.594-0.218-3.797,0.042-4.058
			c-0.144,0.097-0.267-0.022-0.367-0.357c-0.752,0.813-1.35,2.87-1.591,4.073c-0.064-0.449,0.21-3.53-0.334-4.432
			c-0.972-1.605-2.31,2.672-2.79,3.873c-0.149-1.375,0.234-3.016-0.597-4.192c0.153,0.215-3.4,3.629-2.051,4.113
			c-1.591-0.574-1.069-3.158-2.263-3.998c-0.864-0.61-3.245,3.516-3.768,3.985c0.006-0.254,0.489-4.643-0.45-5.069
			c-1.191-0.542-2.645,4.931-2.335,3.922c-0.004-0.494-0.36-7.997-2.244-4.776c0.004-0.496,0.448-3.159-0.599-3.039
			c-0.307,0.433-0.486,0.912-0.543,1.437c0.052-0.714-0.258-1.191-0.926-1.429c-1.021,0.04-1.659,8.232-1.339,8.479
			c-0.789-0.611-0.372-4.181-0.859-4.209c-0.557-0.293-1.771,5.665-1.326,4.067c0.162-1.024-0.051-1.944-0.643-2.758
			c-0.979-0.824-2.126,3.169-2.159,3.289c0.585-1.977,0.188-3.38-1.19-4.206c-1.215,1.102-2.119,2.455-2.715,4.059
			c-0.255-0.933-0.158-1.71-1.093-2.141c0.072-0.186-0.348,2.382,0.134,2.495c-1.388,0.747-2.531-5.088-3.423-4.266
			c-0.877,0.806-0.428,2.516-1.889,3.979c-0.251-0.972-0.331-1.814-0.942-2.513c0.002,0.003-0.954,4.001-0.886,3.861
			c-0.151-0.706-0.433-5.256-1.793-5.099c-0.899,0.104-1.489,2.978-1.386,3.885c-0.455-1.18-1.153-4.068-2.206-1.291
			c-0.063-4.627-0.779-4.066-1.689-1.196c-0.177-0.649-0.306-1.817-1.161-1.985c-0.632-0.125-0.774,2.845-0.771,3.119
			c-0.052-0.088-1.836-4.179-1.883-4.188c-0.518-0.472-0.521,0.965-0.538,1.095c0.054,0.602-2.675-2.951-2.873-3.007
			c-0.539,0.265-0.853,0.699-0.94,1.297c0.047-1.795,0.581-6.381-0.23-7.562c0.112,0.013-0.027-2.351-0.574-2.523
			c-0.089-0.028-1.395,6.639-1.449,6.897c-0.295-2.679-2.547,3.222-2.072,2.191c-0.013,1.37,0.12-2.498-0.422-2.108
			c-0.067,0.049-0.365-0.105-0.379-0.113c-1.178,2.347-2.198,3.309-2.813,5.831c0.022-0.899,0.47-3.856-0.929-4.242
			c-1.246,0.982-1.833,2.381-1.762,4.193c-0.004-0.064-0.938-5.213-1.505-3.996c-0.686,1.479-0.614,2.269-0.775,3.526
			c0.006,0.111,0.065-4.229-0.902-3.527c-0.396,1.067-0.643,2.175-0.735,3.32c0.209-0.867-0.05-1.427-0.777-1.681
			c-0.764,1.565-0.73,3.55-0.944,5.261c-0.229-0.114-0.603-4.042-1.468-3.262c-0.648,0.586-1.03,5.373-1.101,5.757
			c-0.044-0.021-0.089-0.016-0.136,0.018c-0.101-0.294-0.857-6.656-1.625-6.083c-0.63,0.86-0.922,1.857-0.876,2.992
			c-1.306-2.015-2.8,0.726-3.205,1.742c-0.185-1.973-0.007-2.456-0.954-3.031c-0.586,0.851-0.989,1.792-1.215,2.822
			c0.056-1.494,0.414-2.391-0.41-3.491c-0.532,0.439-3.418,4.219-3.073,4.688c-0.601-0.817,0.217-4.007-1.206-4.277
			c-0.313-0.059-1.229,2.28-1.279,2.388c-0.047-0.769-1.11-2.238-1.874-2.548c-0.453-0.183-1.654,3.033-1.947,3.702
			c-0.053-1.448-0.076-3.226-0.152-4.659c-0.145-0.037-0.28-0.093-0.409-0.17c-0.461,1.039-0.789,2.122-0.988,3.25
			c-0.027-1.286,0.465-3.523-0.697-4.504c-0.513,0.417-0.806,0.978-0.88,1.679c0.077,0.215,0.277-3.198-0.662-3.424
			c-0.394-0.095-0.909,3.145-0.761,2.365c0.069-1.166-0.042-2.306-0.336-3.421c-1.546-0.418-2.543,7.391-2.63,7.793
			c-0.194-0.648,0.021-1.813-0.229-2.389c-0.561-1.283-2.785,6.255-2.748,6.146c-0.871-1.538-0.098-3.859-1.271-5.226
			c-0.538-0.628-2.135,3.974-2.22,4.359c-0.022-0.142-0.437-2.924-0.501-2.924c-0.146,0.043-0.279-0.015-0.397-0.171
			c-0.38,0.859-0.644,1.76-0.789,2.701c0.013-1.005-0.126-1.988-0.417-2.948c-0.111-0.122-2.811,7.594-2.514,6.796
			c0.086-1.083,0.875-4.207-0.121-5.24c-0.498-0.515-1.422,2.249-1.463,2.358c0.063-1,0.43-2.483,0.079-3.44
			c-0.314-0.853-1.167,0.573-1.271,0.76c-0.485-4.017-3.386,0.631-3.076,0.968c-0.634-0.687,0.026-3.465-0.798-3.537
			c-0.264-0.022-1.67,1.969-1.836,2.285c-0.205-0.408-0.233-3.629-1.148-3.184c-0.821,0.401-1.199,2.351-1.393,3.102
			c-0.481-0.893-0.19-2.575-0.856-3.348c-0.531-0.613-2.072,2.734-2.24,3.096c0.004-0.481,0.279-2.436-0.008-2.585
			c-0.502,0.085-0.67,0.361-0.507,0.83c-0.415-1.328-1.267,2.527-1.378,2.736c0.203-0.373-2.003-3.077-0.932-3.801
			c-0.13,0.177-0.268,0.124-0.414-0.159c0.187,0.071-1.318,2.59-1.187,2.757c-0.646-0.815,0.364-3.494-0.086-3.903
			c-0.166,0.042-0.303-0.015-0.408-0.167c-0.197,0.009-1.027,2.45-1.275,2.882c-0.188-0.972-0.58-1.863-1.17-2.674
			c-0.512,0.429-0.78,1.015-0.804,1.757c-0.001-0.206-0.078-2.075,0.015-2.076c-0.601,0.016-1,2.72-1.028,2.83
			c-0.36-0.813-0.902-2.246-0.737-3.063c-1.213,0.575,0.531-3.271-0.966,1.901c0.002,0.017-0.836-3.896-1.328-1.552
			c-0.231-1.519-0.766-0.533-0.979,0.39c0.008-0.512,0.478-2.409-0.427-2.935c-0.527-0.333-1.453,7.626-1.203,6.076
			c-0.292-1.365,0.91-7.295-0.734-7.836c-1.599,1.362-1.278,6.501-1.579,8.178c-0.148-0.471,0.105-7.118-0.062-7.15
			c0.09,0.02-2.741,9.979-3.291,11.745c-0.678-2.456-0.874-4.444-1.869-5.969c-0.303-0.46-2.042,3.917-2.206,3.869
			c-1.342-3.574-3.954-12.291-4.279-2.086c-1.104-3.211-2.235-4.442-2.356,1.356c-0.312-0.517-1.739-4.296-1.464-4.4
			c-0.046,0.018-0.091,0.035-0.138,0.053c-0.921,5.29,0.536,6.163-2.925,3.517c-3.121-1.782-0.729-4.834-4.428,0.529
			c-1.898-2.104-1.802-4.393-3.737,0.244c-0.693-1.072-0.88-0.788-1.847-0.006c-0.031-0.301,0.196-2.614,0.146-2.614
			c-0.132-0.018-0.26-0.043-0.387-0.079c0.004,0.014,0.002,0.02-0.005,0.02c0,1.551-0.854,2.787-1.563,4.125
			c-0.48-0.887-1.557-3.679-2.178-1.54c-0.378-0.377,0.177-1.302-0.527-1.673c-0.38-0.191-1.533,2.148-1.764,2.569
			c-0.221-0.479-0.936-3.056-0.96-3.065c-0.688-0.3-1.15,1.62-1.262,2.009c-0.334-0.854-0.828-4.122-1.746-1.665
			c-0.071-0.421,0.192-1.461-0.293-1.615c-1.034-0.329-1.562,2.049-1.791,2.604c-0.144-0.385,0.265-2.281-0.553-2.328
			c-0.7,0-1.19,1.588-1.334,1.979c-0.046-2.455-1.168-0.509-1.472,0.435c-1.185-2.116-2.093-3.148-3.027-0.093
			c-0.589-0.356,0.188-1.261-0.803-1.426c0.05,0.143-0.064,0.114-0.345-0.088c-0.72,0.068-0.682,1.791-0.931,2.289
			c-0.407-0.321-0.733-1.578-1.098-1.64c-0.573-0.091-1.069,1.317-1.17,1.813c-3.93-3.536-0.454-0.795-3.229,0.659
			c-0.318-0.447-0.567-1.841-1.168-1.905c-0.565,0.15-0.438,1.53-0.445,2.037c-1.564-4.345-2.184-2.722-2.184,0.518
			c-1.097-1.124-4.271-3.592-4.271-3.592v34.061h264.813C386.308,160.809,386.308,142.011,386.308,136.323z M245.547,125.755
			C245.553,125.786,245.534,125.778,245.547,125.755C245.548,125.756,245.545,125.758,245.547,125.755z M307.992,122.884
			C307.992,122.891,307.99,122.867,307.992,122.884C307.992,122.886,307.991,122.883,307.992,122.884z M335.601,127.132
			C335.564,127.132,335.602,127.132,335.601,127.132C335.596,127.132,335.601,127.132,335.601,127.132z M348.698,128.71
			C348.781,128.657,348.7,128.708,348.698,128.71C348.704,128.707,348.698,128.71,348.698,128.71z M130.916,127.099
			C130.911,127.096,130.916,127.092,130.916,127.099C130.914,127.099,130.916,127.099,130.916,127.099z M131.11,127.439
			C131.108,127.436,131.113,127.456,131.11,127.439C131.11,127.439,131.11,127.441,131.11,127.439z M147.764,129.554
			C147.764,129.563,147.74,129.57,147.764,129.554C147.764,129.555,147.76,129.555,147.764,129.554z M352.49,129.996L352.49,129.996
			C352.467,129.978,352.464,129.974,352.49,129.996z M353.563,132C353.593,132.045,353.548,132.015,353.563,132
			C353.567,132.006,353.562,132.001,353.563,132z M373.906,138.478C373.855,138.468,373.94,138.487,373.906,138.478
			C373.901,138.476,373.907,138.478,373.906,138.478z M163.859,125.917C163.869,125.898,163.858,125.917,163.859,125.917
			C163.861,125.916,163.86,125.917,163.859,125.917z M297.362,125.422C297.359,125.429,297.362,125.424,297.362,125.422
			C297.362,125.422,297.362,125.424,297.362,125.422z M297.218,125.657C297.218,125.656,297.218,125.657,297.218,125.657
			L297.218,125.657z M297.224,125.646C297.226,125.644,297.226,125.649,297.224,125.646L297.224,125.646z M297.228,125.631
			C297.226,125.633,297.226,125.631,297.228,125.631L297.228,125.631z M297.201,125.639
			C297.199,125.648,297.198,125.646,297.201,125.639C297.201,125.639,297.2,125.641,297.201,125.639z M297.138,125.624
			C297.217,125.624,297.128,125.634,297.138,125.624C297.148,125.624,297.138,125.625,297.138,125.624z M297.169,125.634
			C297.165,125.639,297.156,125.641,297.169,125.634C297.168,125.636,297.167,125.636,297.169,125.634z M344.347,132.702
			L344.347,132.702L344.347,132.702L344.347,132.702z M236.011,128.989C236.011,128.989,236.007,128.981,236.011,128.989
			C236.013,128.991,236.011,128.989,236.011,128.989z M183.882,124.681C183.879,124.732,183.882,124.639,183.882,124.681
			C183.882,124.687,183.882,124.679,183.882,124.681z M257.879,127.805C257.88,127.83,257.87,127.937,257.879,127.805
			C257.88,127.815,257.879,127.805,257.879,127.805z M297.29,125.381C297.275,125.375,297.291,125.377,297.29,125.381
			C297.287,125.379,297.29,125.379,297.29,125.381z M353.614,132.203C353.61,132.213,353.569,132.208,353.614,132.203
			C353.614,132.205,353.607,132.203,353.614,132.203z M342.424,124.514C342.427,124.52,342.426,124.529,342.424,124.514
			C342.425,124.515,342.425,124.517,342.424,124.514z M243.68,130.17c0.001-0.01,0.005-0.018,0.007-0.025
			C243.684,130.153,243.681,130.161,243.68,130.17z M186.21,123.617C186.24,123.551,186.228,123.623,186.21,123.617
			C186.214,123.607,186.214,123.618,186.21,123.617z M155.398,128.918C155.395,128.926,155.395,128.926,155.398,128.918
			C155.399,128.915,155.397,128.921,155.398,128.918z M348.782,128.748C348.778,128.757,348.782,128.745,348.782,128.748
			C348.781,128.748,348.782,128.748,348.782,128.748z M346.314,133.644C346.301,133.71,346.258,133.688,346.314,133.644
			C346.311,133.661,346.302,133.654,346.314,133.644z M342.431,124.572v-0.002V124.572z M342.254,124.719L342.254,124.719
			C342.256,124.721,342.254,124.719,342.254,124.719z M284.909,125.421C284.906,125.412,284.899,125.382,284.909,125.421
			C284.907,125.417,284.909,125.421,284.909,125.421z M264.219,121.884C264.222,121.886,264.21,121.873,264.219,121.884
			C264.219,121.884,264.219,121.882,264.219,121.884z M243.316,130.495C243.323,130.385,243.325,130.487,243.316,130.495
			C243.318,130.48,243.318,130.495,243.316,130.495z M228.913,120.797C228.913,120.797,228.913,120.792,228.913,120.797
			C228.911,120.797,228.913,120.797,228.913,120.797z M171.881,125.584c0.001-0.001,0.001-0.003,0.001-0.003
			C171.889,125.574,171.886,125.579,171.881,125.584z M382.196,138.579C382.209,138.552,382.203,138.563,382.196,138.579
			L382.196,138.579z M348.757,128.828C348.754,128.837,348.754,128.83,348.757,128.828
			C348.756,128.83,348.755,128.828,348.757,128.828z M348.728,128.692C348.728,128.679,348.737,128.738,348.728,128.692
			C348.728,128.692,348.73,128.698,348.728,128.692z M329.187,129.697C329.065,129.766,329.194,129.702,329.187,129.697
			C329.173,129.705,329.187,129.695,329.187,129.697z M307.669,121.722C307.642,121.695,307.743,121.783,307.669,121.722
			C307.668,121.722,307.675,121.729,307.669,121.722z M289.655,125.429C289.651,125.424,289.661,125.437,289.655,125.429
			C289.654,125.429,289.656,125.431,289.655,125.429z M289.649,125.422C289.649,125.431,289.625,125.4,289.649,125.422
			C289.649,125.422,289.645,125.417,289.649,125.422z M257.349,121.169C257.223,121.173,257.349,121.169,257.349,121.169
			C257.33,121.171,257.349,121.169,257.349,121.169z M257.339,121.173C257.246,121.173,257.317,121.171,257.339,121.173
			C257.326,121.173,257.325,121.171,257.339,121.173z M243.502,129.734C243.512,129.625,243.516,129.737,243.502,129.734
			C243.503,129.717,243.507,129.735,243.502,129.734z M199.749,129.041C199.743,129.027,199.747,129.037,199.749,129.041
			C199.748,129.039,199.749,129.041,199.749,129.041z M194.811,126.187C194.811,126.157,194.823,126.198,194.811,126.187
			C194.811,126.184,194.812,126.189,194.811,126.187z M171.841,126.242C171.853,126.198,171.852,126.229,171.841,126.242
			C171.844,126.234,171.841,126.242,171.841,126.242z M171.899,125.683c0.005-0.004,0.012-0.007,0.017-0.012
			C171.918,125.668,171.905,125.681,171.899,125.683z M171.892,125.681c0-0.002,0-0.002,0-0.002
			C171.894,125.678,171.896,125.676,171.892,125.681z M135.926,127.251C135.905,127.293,135.93,127.154,135.926,127.251
			C135.923,127.256,135.926,127.242,135.926,127.251z M369.601,131.872C369.592,131.867,369.601,131.814,369.601,131.872
			C369.599,131.871,369.601,131.864,369.601,131.872z M353.224,128.219C353.198,128.213,353.24,128.096,353.224,128.219
			C353.217,128.218,353.226,128.202,353.224,128.219z M350.113,132.873C350.065,132.909,350.116,132.869,350.113,132.873
			C350.107,132.876,350.114,132.873,350.113,132.873z M348.743,128.68C348.724,128.692,348.738,128.679,348.743,128.68
			C348.74,128.682,348.741,128.68,348.743,128.68z M348.741,128.682C348.717,128.7,348.738,128.685,348.741,128.682
			C348.738,128.685,348.75,128.677,348.741,128.682z M342.672,123.001C342.68,122.999,342.704,123.013,342.672,123.001
			C342.674,123.001,342.678,123.005,342.672,123.001z M335.691,127.197C335.697,127.299,335.632,127.019,335.691,127.197
			C335.691,127.204,335.688,127.189,335.691,127.197z M329.101,129.492C329.101,129.363,329.121,129.5,329.101,129.492
			C329.101,129.49,329.105,129.493,329.101,129.492z M328.23,126.681c-0.009-0.019-0.015-0.036-0.024-0.055
			C328.235,126.638,328.248,126.656,328.23,126.681z M317.508,128.48C317.498,128.468,317.53,128.468,317.508,128.48
			C317.506,128.476,317.51,128.478,317.508,128.48z M317.495,128.486C317.487,128.47,317.487,128.47,317.495,128.486
			L317.495,128.486z M296.68,124.779C296.666,124.791,296.674,124.779,296.68,124.779
			C296.68,124.779,296.678,124.779,296.68,124.779z M274.301,123.035C274.27,123.035,274.305,122.934,274.301,123.035
			C274.296,123.035,274.302,123.021,274.301,123.035z M270.157,112.478C270.169,112.414,270.168,112.475,270.157,112.478
			C270.159,112.468,270.16,112.477,270.157,112.478z M257.296,121.171C257.295,121.171,257.295,121.171,257.296,121.171
			C257.295,121.171,257.295,121.171,257.296,121.171z M255.796,122.525C255.878,122.345,255.831,122.53,255.796,122.525
			C255.807,122.499,255.803,122.525,255.796,122.525z M255.156,127.712C255.126,127.79,255.161,127.605,255.156,127.712
			C255.155,127.72,255.157,127.701,255.156,127.712z M251.608,130.206C251.595,130.177,251.611,130.201,251.608,130.206
			C251.606,130.203,251.608,130.206,251.608,130.206z M231.32,125.35C231.32,125.35,231.326,125.333,231.32,125.35
			C231.32,125.35,231.322,125.347,231.32,125.35z M230.681,121.244C230.618,121.244,230.847,121.138,230.681,121.244
			C230.679,121.244,230.697,121.232,230.681,121.244z M207.012,128.249C207.014,128.226,207.051,128.192,207.012,128.249
			C207.013,128.241,207.019,128.239,207.012,128.249z M198.379,125.89C198.373,125.887,198.376,125.863,198.379,125.89
			C198.378,125.888,198.379,125.885,198.379,125.89z M195.305,127.083C195.314,127.112,195.277,127.094,195.305,127.083
			C195.307,127.086,195.3,127.084,195.305,127.083z M194.222,124.434C194.222,124.455,194.19,124.509,194.222,124.434
			C194.222,124.442,194.218,124.447,194.222,124.434z M183.886,122.241C183.886,122.239,183.886,122.229,183.886,122.241
			C183.886,122.241,183.886,122.239,183.886,122.241z M172.608,128.256C172.59,128.12,172.608,128.264,172.608,128.256
			C172.605,128.239,172.608,128.256,172.608,128.256z M157.029,128.255C157.032,128.263,157.006,128.247,157.029,128.255
			C157.03,128.256,157.027,128.253,157.029,128.255z M156.972,128.253C156.945,128.25,156.987,128.253,156.972,128.253
			C156.967,128.251,156.973,128.253,156.972,128.253z M156.954,128.253C156.948,128.259,156.896,128.259,156.954,128.253
			C156.953,128.255,156.946,128.255,156.954,128.253z M131.11,127.421c0-0.001,0-0.003,0-0.005
			C131.11,127.42,131.11,127.42,131.11,127.421z M386.308,135.567c0,0.002,0,0.006,0,0.006
			C386.34,135.565,386.309,135.565,386.308,135.567C386.302,135.569,386.309,135.565,386.308,135.567z M382.948,137.069
			C382.687,137.524,382.801,137.206,382.948,137.069C382.934,137.091,382.829,137.179,382.948,137.069z M382.696,137.341
			C382.656,137.38,382.802,137.216,382.696,137.341C382.693,137.343,382.705,137.327,382.696,137.341z M376.02,135.577
			C376.157,135.552,375.683,135.638,376.02,135.577C376.028,135.575,375.984,135.583,376.02,135.577z M369.028,129.631
			C369.032,129.6,369.041,129.549,369.028,129.631L369.028,129.631z M348.731,128.679
			C348.731,128.772,348.58,128.705,348.731,128.679C348.731,128.68,348.706,128.682,348.731,128.679z M348.532,128.881
			C348.53,128.884,348.518,128.896,348.532,128.881C348.531,128.881,348.531,128.882,348.532,128.881z M348.481,128.958
			c0,0.006-0.001,0.014-0.001,0.019C348.479,128.963,348.48,128.958,348.481,128.958z M342.722,122.984
			C342.704,123.003,342.724,122.981,342.722,122.984C342.719,122.987,342.731,122.971,342.722,122.984z M335.662,127.127
			C335.602,127.137,335.626,127.117,335.662,127.127C335.651,127.129,335.652,127.125,335.662,127.127z M328.257,126.486
			c-0.015-0.01-0.026-0.013-0.039-0.021C328.232,126.471,328.245,126.476,328.257,126.486z M322.844,124.278
			C322.839,124.278,322.852,124.262,322.844,124.278C322.843,124.278,322.844,124.276,322.844,124.278z M319.948,124.32
			C319.926,124.472,319.955,124.26,319.948,124.32C319.945,124.336,319.948,124.305,319.948,124.32z M315.307,124.42
			c-0.001-0.001-0.001-0.001-0.003-0.001C315.305,124.419,315.306,124.419,315.307,124.42z M293.614,125.85
			c0.016-0.01,0.032-0.02,0.057-0.032C293.654,125.829,293.632,125.838,293.614,125.85z M287.362,125.741
			C287.363,125.741,287.352,125.706,287.362,125.741C287.361,125.739,287.361,125.736,287.362,125.741z M279.731,123.252
			C279.94,123.374,279.735,123.239,279.731,123.252C279.749,123.263,279.729,123.257,279.731,123.252z M272.075,120.783
			c-0.001,0.001-0.003,0-0.004,0C272.073,120.783,272.074,120.783,272.075,120.783z M272.004,120.8
			c0.008-0.005,0.016-0.006,0.022-0.01C272.02,120.792,272.012,120.797,272.004,120.8z M270.58,114.063
			C270.648,114.075,270.531,114.049,270.58,114.063C270.588,114.065,270.575,114.062,270.58,114.063z M266.191,118.803
			C266.143,118.801,266.197,118.666,266.191,118.803C266.181,118.803,266.191,118.783,266.191,118.803z M259.434,120.288
			C259.455,120.341,259.384,120.168,259.434,120.288C259.435,120.292,259.424,120.264,259.434,120.288z M250.732,123.926
			c0.026-0.005,0.031,0,0.03,0.013C250.752,123.935,250.741,123.93,250.732,123.926z M239.781,125.412
			C239.876,125.571,239.679,125.24,239.781,125.412C239.792,125.429,239.759,125.375,239.781,125.412z M236.57,125.269
			C236.561,125.357,236.577,125.198,236.57,125.269C236.569,125.278,236.573,125.227,236.57,125.269z M232.329,122.931
			C232.297,122.919,232.394,122.834,232.329,122.931C232.325,122.929,232.339,122.918,232.329,122.931z M230.723,121.163
			C230.699,121.163,230.706,121.152,230.723,121.163C230.717,121.163,230.717,121.16,230.723,121.163z M214.014,127.743
			L214.014,127.743C214.013,127.743,214.02,127.74,214.014,127.743z M201.074,126.292
			C201.088,128.418,200.912,127.176,201.074,126.292C201.077,126.641,201.057,126.392,201.074,126.292z M193.01,123.434
			C193.002,123.501,193.005,123.472,193.01,123.434C193.008,123.446,193.011,123.419,193.01,123.434z M179.065,126.081
			c-0.01,0.01-0.018,0.017-0.029,0.027C179.049,126.083,179.058,126.078,179.065,126.081z M165.423,128.109
			C165.415,128.129,165.422,128.109,165.423,128.109C165.425,128.106,165.429,128.109,165.423,128.109z M157.125,128.242
			c0-0.001-0.002-0.001-0.003-0.001C157.13,128.242,157.135,128.244,157.125,128.242z M155.295,128.086
			C155.295,128.088,155.306,128.146,155.295,128.086C155.293,128.08,155.297,128.094,155.295,128.086z M152.584,128.096
			C152.58,128.094,152.582,128.094,152.584,128.096C152.583,128.096,152.583,128.096,152.584,128.096z M148.551,127.146
			C148.498,127.132,148.61,127.042,148.551,127.146C148.543,127.142,148.559,127.131,148.551,127.146z M146.434,126.654
			C146.362,126.73,146.458,126.63,146.434,126.654C146.426,126.663,146.437,126.651,146.434,126.654z M146.229,126.974
			C146.217,127.074,146.188,127.038,146.229,126.974C146.226,126.995,146.223,126.982,146.229,126.974z M145.134,125.676
			c-0.006-0.006-0.011-0.016-0.017-0.024C145.132,125.67,145.143,125.686,145.134,125.676z M141.149,126.871
			c-0.002,0.002-0.003,0.004-0.005,0.005C141.147,126.873,141.151,126.87,141.149,126.871z M137.378,128.244
			C137.395,128.25,137.395,128.251,137.378,128.244L137.378,128.244z M135.236,128.955
			C135.125,128.955,135.263,128.954,135.236,128.955C135.226,128.955,135.245,128.955,135.236,128.955z M131.285,127.534
			C131.29,127.645,131.258,127.488,131.285,127.534C131.286,127.55,131.282,127.531,131.285,127.534z M131.3,127.581
			c-0.002-0.01-0.006-0.021-0.009-0.032C131.293,127.55,131.292,127.548,131.3,127.581z M131.284,127.526
			C131.275,127.51,131.278,127.465,131.284,127.526C131.281,127.523,131.282,127.518,131.284,127.526z"/>

	<polygon fill="#0065BD"  stroke-miterlimit="10" points="392.797,300 266.365,206.95 266.365,209.607 379.526,300"/>
	<polygon fill="#0065BD"  stroke-miterlimit="10" points="75.051,300 198.483,205.95 198.483,209.607 87.322,300 "/>
	<rect x="141.266" y="249.491" fill="#0065BD"  stroke-miterlimit="10" width="182.558" height="6"/>
	<rect x="170.882" y="228.259" transform="matrix(1 0.0057 -0.0057 1 1.3055 -1.313)" fill="#0065BD"  stroke-miterlimit="10" width="124.021" height="4"/>
	<rect x="97.033" y="284.386" transform="matrix(1 0.0017 -0.0017 1 0.4908 -0.398)" fill="#0065BD"  stroke-miterlimit="10" width="274.476" height="8"/>
	<rect x="187.058" y="215.671" transform="matrix(1 0.0077 -0.0077 1 1.6732 -1.7762)" fill="#0065BD"  stroke-miterlimit="10" width="91.594" height="4"/>
	<rect x="121.493" y="28.441" fill="none"  stroke-miterlimit="10" width="264.813" height="132.368"/>



	<circle id="path1" fill="#E5E3DA"  cx="50" cy="140" r="50"/>
	<rect id="rect6-2-0" x="30" y="150" fill="#A2AD00"  stroke-miterlimit="10" width="100" height="100"/>
	<circle id="path1" fill="#E37222"  cx="120" cy="180" r="50"/>
</svg>
