<?xml version="1.0" encoding="utf-8"?>
<svg version="1.1" id="svg1" xmlns:svg="http://www.w3.org/2000/svg"
	 xmlns="http://www.w3.org/2000/svg" xmlns:xlink="http://www.w3.org/1999/xlink" x="0px" y="0px" width="1275px" height="354px"
	 viewBox="0 0 1275 354" enable-background="new 0 0 1275 354" xml:space="preserve">
<g enable-background="new">
	<path d="M295.3,189.4V160.8h3.898l15,22.5v-22.5h3.602V189.4H314l-15-22.5v22.5H295.3z"/>
	<path d="M338,182.8l3.6,0.4c-0.6,2.1-1.6,3.8-3.2,4.899c-1.5,1.199-3.5,1.801-5.898,1.801c-3,0-5.4-0.9-7.2-2.801
		c-1.8-1.899-2.7-4.5-2.7-7.899c0-3.5,0.898-6.2,2.7-8.1c1.8-1.9,4.1-2.9,7-2.9c2.8,0,5,0.9,6.8,2.8s2.6,4.5,2.6,8
		c0,0.2,0,0.5,0,0.9h-15.5c0.102,2.3,0.8,4,1.9,5.199c1.2,1.199,2.6,1.801,4.3,1.801c1.3,0,2.4-0.301,3.3-1
		C336.698,185.3,337.4,184.2,338,182.8z M326.4,177.1H338c-0.2-1.7-0.602-3.1-1.302-3.9c-1.1-1.4-2.6-2-4.398-2
		c-1.602,0-3,0.5-4.102,1.6C327.198,173.8,326.6,175.3,326.4,177.1z"/>
	<path d="M359.6,186.9c-1.3,1.1-2.6,1.898-3.8,2.3c-1.2,0.5-2.5,0.7-3.9,0.7c-2.3,0-4-0.602-5.3-1.7c-1.2-1.101-1.8-2.5-1.8-4.3
		c0-1,0.2-1.9,0.7-2.801c0.5-0.801,1.1-1.5,1.8-2s1.6-0.899,2.5-1.199c0.7-0.2,1.7-0.4,3.1-0.5c2.8-0.3,4.9-0.7,6.3-1.2
		c0-0.5,0-0.8,0-0.9c0-1.4-0.3-2.4-1-3c-0.898-0.8-2.198-1.2-4-1.2c-1.698,0-2.898,0.3-3.698,0.9c-0.802,0.6-1.4,1.6-1.7,3.1
		l-3.4-0.5c0.3-1.5,0.8-2.7,1.5-3.6s1.8-1.6,3.102-2.1c1.398-0.5,2.898-0.7,4.698-0.7c1.802,0,3.2,0.2,4.302,0.6
		c1.1,0.4,1.898,0.9,2.398,1.6c0.5,0.6,0.9,1.4,1.102,2.4c0.1,0.6,0.198,1.7,0.198,3.2v4.7c0,3.3,0.102,5.3,0.2,6.2
		c0.102,0.898,0.4,1.699,0.9,2.5h-3.7C359.9,188.7,359.698,187.9,359.6,186.9z M359.3,179c-1.3,0.5-3.2,1-5.7,1.3
		c-1.4,0.2-2.5,0.4-3.102,0.7c-0.6,0.3-1.1,0.6-1.398,1.1s-0.5,1.102-0.5,1.7c0,0.9,0.398,1.7,1.1,2.3c0.7,0.602,1.7,0.9,3.102,0.9
		c1.398,0,2.6-0.3,3.6-0.9c1.102-0.6,1.8-1.398,2.3-2.398c0.4-0.801,0.602-2,0.602-3.5V179H359.3z"/>
	<path d="M368.198,189.4v-20.7h3.2v3.1c0.8-1.5,1.602-2.4,2.2-2.9s1.399-0.7,2.3-0.7c1.2,0,2.4,0.4,3.602,1.1l-1.2,3.3
		c-0.9-0.5-1.7-0.8-2.602-0.8c-0.8,0-1.5,0.2-2.1,0.7c-0.601,0.5-1,1.1-1.3,1.9c-0.4,1.3-0.602,2.6-0.602,4.1v10.9H368.198z"/>
	<path d="M400.4,186.3l0.5,3.101c-1,0.199-1.898,0.301-2.7,0.301c-1.3,0-2.3-0.2-3-0.602c-0.7-0.398-1.2-0.898-1.5-1.6
		s-0.398-2-0.398-4.2v-11.9h-2.602v-2.7h2.602v-5.1l3.5-2.1v7.2h3.5v2.7h-3.5v12.1c0,1,0.1,1.6,0.2,1.9c0.1,0.3,0.3,0.5,0.6,0.699
		s0.7,0.301,1.2,0.301C399.198,186.4,399.698,186.4,400.4,186.3z"/>
	<path d="M417.4,186.9c-1.3,1.1-2.6,1.898-3.8,2.3c-1.2,0.5-2.5,0.7-3.9,0.7c-2.3,0-4-0.602-5.3-1.7c-1.2-1.101-1.8-2.5-1.8-4.3
		c0-1,0.2-1.9,0.7-2.801c0.5-0.801,1.1-1.5,1.8-2s1.6-0.899,2.5-1.199c0.7-0.2,1.7-0.4,3.1-0.5c2.802-0.3,4.9-0.7,6.302-1.2
		c0-0.5,0-0.8,0-0.9c0-1.4-0.302-2.4-1-3c-0.9-0.8-2.2-1.2-4-1.2c-1.7,0-2.9,0.3-3.7,0.9s-1.4,1.6-1.7,3.1l-3.4-0.5
		c0.302-1.5,0.802-2.7,1.5-3.6c0.7-0.9,1.802-1.6,3.102-2.1c1.398-0.5,2.898-0.7,4.7-0.7c1.8,0,3.198,0.2,4.3,0.6
		c1.1,0.4,1.898,0.9,2.398,1.6c0.5,0.6,0.9,1.4,1.102,2.4c0.1,0.6,0.2,1.7,0.2,3.2v4.7c0,3.3,0.1,5.3,0.198,6.2
		c0.102,0.898,0.4,1.699,0.9,2.5h-3.7C417.698,188.7,417.5,187.9,417.4,186.9z M417.1,179c-1.3,0.5-3.2,1-5.7,1.3
		c-1.398,0.2-2.5,0.4-3.1,0.7c-0.602,0.3-1.102,0.6-1.4,1.1s-0.5,1.102-0.5,1.7c0,0.9,0.4,1.7,1.102,2.3
		c0.698,0.602,1.698,0.9,3.1,0.9s2.6-0.3,3.6-0.9c1.102-0.6,1.802-1.398,2.302-2.398c0.398-0.801,0.6-2,0.6-3.5V179H417.1z"/>
	<path d="M426,189.4v-20.7h3.198v3.1c0.802-1.5,1.602-2.4,2.2-2.9c0.602-0.5,1.4-0.7,2.3-0.7c1.2,0,2.4,0.4,3.602,1.1l-1.2,3.3
		c-0.9-0.5-1.7-0.8-2.6-0.8c-0.802,0-1.5,0.2-2.102,0.7c-0.6,0.5-1,1.1-1.3,1.9c-0.4,1.3-0.601,2.6-0.601,4.1v10.9H426z"/>
	<path d="M438.698,191.2l3.4,0.5c0.1,1.1,0.5,1.8,1.2,2.3c0.898,0.7,2.1,1,3.6,1c1.602,0,2.9-0.3,3.8-1c0.9-0.7,1.5-1.6,1.802-2.7
		c0.198-0.7,0.3-2.2,0.3-4.5c-1.5,1.8-3.5,2.7-5.7,2.7c-2.9,0-5.102-1-6.602-3.1c-1.6-2.102-2.3-4.5-2.3-7.4c0-2,0.4-3.8,1.102-5.5
		s1.8-3,3.1-3.9c1.4-0.9,3-1.4,4.8-1.4c2.4,0,4.5,1,6.102,3v-2.5h3.2V186.6c0,3.2-0.302,5.5-1,6.9c-0.7,1.3-1.7,2.4-3.102,3.2
		c-1.398,0.8-3.2,1.2-5.3,1.2c-2.5,0-4.5-0.602-6-1.7C439.6,195.1,438.698,193.4,438.698,191.2z M441.6,178.7c0,2.7,0.5,4.7,1.6,6
		c1.102,1.3,2.4,1.899,4.102,1.899c1.6,0,3-0.601,4.1-1.899c1.102-1.2,1.602-3.2,1.602-5.8c0-2.5-0.602-4.5-1.7-5.7
		c-1.102-1.3-2.5-1.9-4.102-1.9c-1.6,0-2.898,0.6-4,1.9C442.1,174.5,441.6,176.2,441.6,178.7z"/>
	<path d="M475.8,182.8l3.6,0.4c-0.6,2.1-1.6,3.8-3.2,4.899c-1.5,1.199-3.5,1.801-5.898,1.801c-3,0-5.4-0.9-7.2-2.801
		c-1.8-1.899-2.7-4.5-2.7-7.899c0-3.5,0.9-6.2,2.7-8.1s4.1-2.9,7-2.9c2.8,0,5,0.9,6.8,2.8s2.6,4.5,2.6,8c0,0.2,0,0.5,0,0.9H464
		c0.102,2.3,0.802,4,1.9,5.199c1.2,1.199,2.6,1.801,4.3,1.801c1.3,0,2.4-0.301,3.3-1C474.6,185.3,475.3,184.2,475.8,182.8z
		 M464.3,177.1h11.6c-0.2-1.7-0.6-3.1-1.3-3.9c-1.1-1.4-2.6-2-4.4-2c-1.6,0-3,0.5-4.1,1.6C465,173.8,464.4,175.3,464.3,177.1z"/>
	<path d="M491.6,186.3l0.5,3.101c-1,0.199-1.9,0.301-2.7,0.301c-1.3,0-2.3-0.2-3-0.602c-0.7-0.398-1.2-0.898-1.5-1.6
		s-0.398-2-0.398-4.2v-11.9H481.9v-2.7h2.602v-5.1l3.5-2.1v7.2h3.5v2.7H488v12.1c0,1,0.1,1.6,0.198,1.9
		c0.102,0.3,0.302,0.5,0.602,0.699s0.7,0.301,1.2,0.301C490.4,186.4,490.9,186.4,491.6,186.3z"/>
</g>
<g enable-background="new">
	<path d="M840.698,194.4V165.8H860v3.4h-15.5v8.899H857.9v3.399H844.5v13h-3.802V194.4z"/>
	<path d="M878,191.9c-1.302,1.1-2.602,1.898-3.802,2.3c-1.198,0.5-2.5,0.7-3.898,0.7c-2.3,0-4-0.602-5.3-1.7
		c-1.2-1.101-1.802-2.5-1.802-4.3c0-1,0.2-1.9,0.7-2.801c0.5-0.801,1.102-1.5,1.8-2c0.7-0.5,1.602-0.899,2.5-1.199
		c0.7-0.2,1.7-0.4,3.102-0.5c2.8-0.301,4.898-0.7,6.3-1.2c0-0.5,0-0.8,0-0.9c0-1.399-0.3-2.399-1-3c-0.9-0.8-2.2-1.2-4-1.2
		c-1.7,0-2.9,0.3-3.7,0.9c-0.8,0.6-1.4,1.6-1.7,3.1l-3.398-0.5c0.3-1.5,0.8-2.7,1.5-3.6c0.698-0.9,1.8-1.6,3.1-2.1
		c1.4-0.5,2.9-0.7,4.7-0.7s3.2,0.2,4.3,0.6c1.1,0.4,1.9,0.9,2.4,1.6c0.5,0.6,0.898,1.4,1.1,2.4c0.1,0.601,0.2,1.7,0.2,3.2v4.7
		c0,3.3,0.1,5.3,0.2,6.2c0.198,0.898,0.398,1.699,0.898,2.5h-3.7C878.3,193.7,878.1,192.9,878,191.9z M877.698,184
		c-1.3,0.5-3.198,1-5.698,1.3c-1.4,0.2-2.5,0.4-3.102,0.7c-0.6,0.3-1.1,0.6-1.398,1.1c-0.302,0.5-0.5,1.102-0.5,1.7
		c0,0.9,0.398,1.7,1.1,2.3c0.7,0.602,1.7,0.9,3.1,0.9c1.4,0,2.602-0.3,3.602-0.9c1.1-0.6,1.8-1.398,2.3-2.398
		c0.398-0.801,0.6-2,0.6-3.5V184H877.698z"/>
	<path d="M886.698,194.4v-20.7h3.2v3.1c0.8-1.5,1.602-2.4,2.2-2.9s1.399-0.7,2.3-0.7c1.2,0,2.4,0.4,3.602,1.1l-1.2,3.3
		c-0.9-0.5-1.7-0.8-2.602-0.8c-0.8,0-1.5,0.2-2.1,0.7c-0.601,0.5-1,1.1-1.3,1.9c-0.4,1.3-0.602,2.6-0.602,4.1v10.9H886.698z"/>
	<path d="M918.8,191.3l0.5,3.101c-1,0.199-1.9,0.301-2.7,0.301c-1.3,0-2.3-0.2-3-0.602c-0.7-0.398-1.2-0.898-1.5-1.6s-0.4-2-0.4-4.2
		v-11.9h-2.6v-2.7h2.6v-5.1l3.5-2.1v7.2h3.5v2.7h-3.5v12.1c0,1,0.102,1.6,0.2,1.9c0.1,0.3,0.3,0.5,0.6,0.699
		c0.302,0.199,0.7,0.301,1.2,0.301S918.198,191.4,918.8,191.3z"/>
	<path d="M935.8,191.9c-1.3,1.1-2.602,1.898-3.8,2.3c-1.2,0.5-2.5,0.7-3.9,0.7c-2.3,0-4-0.602-5.3-1.7c-1.2-1.101-1.8-2.5-1.8-4.3
		c0-1,0.198-1.9,0.698-2.801c0.5-0.801,1.102-1.5,1.802-2c0.698-0.5,1.6-0.899,2.5-1.199c0.698-0.2,1.698-0.4,3.1-0.5
		c2.8-0.301,4.9-0.7,6.3-1.2c0-0.5,0-0.8,0-0.9c0-1.399-0.3-2.399-1-3c-0.9-0.8-2.2-1.2-4-1.2c-1.7,0-2.9,0.3-3.7,0.9
		c-0.8,0.6-1.398,1.6-1.7,3.1l-3.398-0.5c0.3-1.5,0.8-2.7,1.5-3.6s1.8-1.6,3.1-2.1c1.4-0.5,2.9-0.7,4.7-0.7s3.2,0.2,4.3,0.6
		c1.102,0.4,1.9,0.9,2.4,1.6c0.5,0.6,0.898,1.4,1.1,2.4c0.102,0.601,0.2,1.7,0.2,3.2v4.7c0,3.3,0.1,5.3,0.2,6.2
		c0.2,0.898,0.398,1.699,0.898,2.5H936.3C936.1,193.7,935.9,192.9,935.8,191.9z M935.5,184c-1.302,0.5-3.2,1-5.7,1.3
		c-1.4,0.2-2.5,0.4-3.102,0.7c-0.6,0.3-1.1,0.6-1.398,1.1c-0.3,0.5-0.5,1.102-0.5,1.7c0,0.9,0.398,1.7,1.1,2.3
		c0.7,0.602,1.7,0.9,3.1,0.9c1.4,0,2.602-0.3,3.602-0.9c1.1-0.6,1.8-1.398,2.3-2.398c0.4-0.801,0.6-2,0.6-3.5V184L935.5,184z"/>
	<path d="M944.5,194.4v-20.7h3.198v3.1c0.802-1.5,1.602-2.4,2.2-2.9c0.602-0.5,1.4-0.7,2.3-0.7c1.2,0,2.4,0.4,3.602,1.1l-1.2,3.3
		c-0.9-0.5-1.7-0.8-2.6-0.8c-0.802,0-1.5,0.2-2.102,0.7c-0.6,0.5-1,1.1-1.3,1.9c-0.4,1.3-0.601,2.6-0.601,4.1v10.9H944.5z"/>
	<path d="M957.198,196.2l3.4,0.5c0.1,1.1,0.5,1.8,1.2,2.3c0.898,0.7,2.1,1,3.6,1c1.602,0,2.9-0.3,3.8-1c0.9-0.7,1.5-1.6,1.802-2.7
		c0.198-0.7,0.3-2.2,0.3-4.5c-1.5,1.8-3.5,2.7-5.7,2.7c-2.9,0-5.1-1-6.6-3.1c-1.602-2.102-2.302-4.5-2.302-7.4
		c0-2,0.4-3.8,1.102-5.5c0.7-1.7,1.8-3,3.1-3.9c1.4-0.9,3-1.4,4.8-1.4c2.4,0,4.5,1,6.102,3v-2.5h3.198V191.6c0,3.2-0.3,5.5-1,6.9
		c-0.698,1.3-1.698,2.4-3.1,3.2c-1.399,0.8-3.2,1.2-5.3,1.2c-2.5,0-4.5-0.602-6-1.7C958.1,200.1,957.1,198.4,957.198,196.2z
		 M960.1,183.7c0,2.7,0.5,4.7,1.6,6c1.102,1.3,2.4,1.899,4.102,1.899c1.6,0,3-0.601,4.1-1.899c1.1-1.2,1.6-3.2,1.6-5.8
		c0-2.5-0.6-4.5-1.698-5.7c-1.102-1.3-2.5-1.9-4.102-1.9c-1.6,0-2.898,0.6-4,1.9C960.6,179.3,960.1,181.2,960.1,183.7z"/>
	<path d="M994.3,187.8l3.6,0.4c-0.6,2.1-1.6,3.8-3.2,4.899c-1.5,1.199-3.5,1.801-5.898,1.801c-3,0-5.4-0.9-7.2-2.801
		c-1.8-1.899-2.7-4.5-2.7-7.899c0-3.5,0.9-6.2,2.7-8.1s4.1-2.9,7-2.9c2.8,0,5,0.9,6.8,2.8c1.8,1.9,2.6,4.5,2.6,8c0,0.2,0,0.5,0,0.9
		h-15.5c0.102,2.3,0.802,4,1.9,5.199c1.2,1.199,2.6,1.801,4.3,1.801c1.3,0,2.4-0.301,3.3-1C993,190.3,993.698,189.2,994.3,187.8z
		 M982.698,182.1H994.3c-0.2-1.699-0.602-3.1-1.3-3.898c-1.102-1.4-2.602-2-4.4-2c-1.6,0-3,0.5-4.1,1.6
		C983.5,178.8,982.8,180.3,982.698,182.1z"/>
	<path d="M1010,191.3l0.5,3.101c-1,0.199-1.9,0.301-2.7,0.301c-1.3,0-2.3-0.2-3-0.602c-0.7-0.398-1.2-0.898-1.5-1.6s-0.4-2-0.4-4.2
		v-11.9h-2.6v-2.7h2.6v-5.1l3.5-2.1v7.2h3.5v2.7h-3.5v12.1c0,1,0.1,1.6,0.2,1.9c0.1,0.3,0.3,0.5,0.6,0.699s0.7,0.301,1.2,0.301
		C1008.8,191.4,1009.4,191.4,1010,191.3z"/>
</g>

	<path fill="#E4E2D8" stroke="#000000" stroke-width="3" stroke-miterlimit="10" d="M13.2,53.8c-14.5,32.3,0,70.4,32.3,84.9
		c21.898,9.8,46.3,6.4,64.3-6.9c13.5,0.7,26.8-6.9,32.7-20c5.898-13.2,2.8-28.1-6.8-37.7c-2-22.3-15.7-42.8-37.602-52.6
		C65.8,6.9,27.7,21.4,13.2,53.8z"/>
	<path fill="#E4E2D8" stroke="#000000" stroke-width="3" stroke-miterlimit="10" d="M14.1,302.3c15.5,31.9,53.9,45.3,85.8,29.8
		C121.5,321.6,134.5,300.7,136,278.4c9.2-9.9,11.898-24.9,5.7-37.9c-6.4-13-19.7-20.2-33.302-19C90,208.8,65.5,206,43.9,216.5
		C11.9,231.9-1.4,270.4,14.1,302.3z"/>
	<path fill="#E4E2D8" stroke="#000000" stroke-width="3" stroke-miterlimit="10" d="M695.3,75.4c-2.5,35.3,24.1,66.2,59.398,68.7
		c23.9,1.7,45.7-9.9,58.102-28.5c12.898-4,22.8-15.7,23.898-30c1-14.4-7-27.4-19.3-33.1C807.8,32.3,787.9,17.7,764,16
		C728.6,13.4,697.8,40,695.3,75.4z"/>
	<path fill="#E4E2D8" stroke="#000000" stroke-width="3" stroke-miterlimit="10" d="M695.4,280.9c3.602,35.199,35.2,61,70.5,57.3
		c23.9-2.5,43.3-17.7,52.3-38.101c12-6.199,19.7-19.399,18.302-33.699C835,252,824.9,240.7,811.698,237.1
		c-12.898-18.3-35-29.199-58.898-26.699C717.5,214,691.8,245.5,695.4,280.9z"/>
	<path id="path3" fill="none" stroke="#E37222" stroke-width="4" stroke-linecap="round" stroke-linejoin="round" d="M702.1,298.5
		L1233.3,179L700.198,60.4"/>
	<path id="path4" fill="none" stroke="#0065BD" stroke-width="4" stroke-linecap="round" stroke-linejoin="round" d="M17,303.3
		L266.3,179L18.2,48.5"/>
	<circle stroke="#FFFFFF" stroke-width="3" stroke-miterlimit="10" cx="268.5" cy="178.7" r="8"/>
	<circle stroke="#FFFFFF" stroke-width="3" stroke-miterlimit="10" cx="1231.4" cy="179.1" r="8"/>
</svg>
