<?xml version="1.0" encoding="utf-8"?>
<!-- Generator: Adobe Illustrator 16.0.3, SVG Export Plug-In . SVG Version: 6.00 Build 0)  -->
<!DOCTYPE svg PUBLIC "-//W3C//DTD SVG 1.1//EN" "http://www.w3.org/Graphics/SVG/1.1/DTD/svg11.dtd">
<svg version="1.1" id="svg1" xmlns:svg="http://www.w3.org/2000/svg"
	 xmlns="http://www.w3.org/2000/svg" xmlns:xlink="http://www.w3.org/1999/xlink" x="0px" y="0px" width="1275px" height="354px"
	 viewBox="0 0 1275 354" enable-background="new 0 0 1275 354" xml:space="preserve">
<g id="g2" transform="matrix(1.0776579,0,0,1.0963035,-14.260682,-123.57845)">
	<path id="path12_1_" fill="none" stroke="#0065BD" stroke-width="4" d="M981.826,305.407"/>
	<path id="path12_3_" fill="none" stroke="#0065BD" stroke-width="4" d="M274.826,381.485"/>
	<path id="path12_2_" fill="none" stroke="#0065BD" stroke-width="4" d="M359.443,437.349c-31.02-15.76-59.438-34.552-84.617-55.864
		"/>
	<path id="path12_5_" fill="none" stroke="#0065BD" stroke-width="4" d="M359.443,437.349"/>
	<path id="path12_4_" fill="none" stroke="#0065BD" stroke-width="4" d="M828.53,437.347"/>
	<path id="path12" fill="none" stroke="#0065BD" stroke-width="4" d="M981.826,305.407c-36.252,53.895-89.225,99.389-153.296,131.94
		"/>
	<path id="path12-9_4_" fill="none" stroke="#0065BD" stroke-width="4" d="M980.355,239.298"/>
	<path id="path12-9_3_" fill="none" stroke="#0065BD" stroke-width="4" d="M274.683,321.561"/>
	<path id="path12-9_2_" fill="none" stroke="#0065BD" stroke-width="4" d="M520.004,435.063
		c-96.827-14.063-182.483-55.124-245.32-113.502"/>
	<path id="path12-9_1_" fill="none" stroke="#0065BD" stroke-width="4" d="M662.798,435.876
		c-22.296,2.975-45.167,4.521-68.473,4.521c-25.348,0-50.182-1.828-74.321-5.333"/>
	<path id="path12-9" fill="none" stroke="#0065BD" stroke-width="4" d="M980.355,239.298
		C920.474,341.99,802.996,417.177,662.798,435.876"/>
	<path id="path12-1_4_" fill="none" stroke="#0065BD" stroke-width="4" d="M980.355,207.168"/>
	<path id="path12-1_2_" fill="none" stroke="#0065BD" stroke-width="4" d="M274.678,273.479"/>
	<path id="path12-1" fill="none" stroke="#0065BD" stroke-width="4" d="M980.355,207.168
		C909.966,322.554,766.67,401.553,601.344,401.553c-131.264,0-248.641-49.802-326.666-128.074"/>
	<path id="path12-1-5_4_" fill="none" stroke="#0065BD" stroke-width="4" d="M980.355,133.61"/>
	<path id="path12-1-5_2_" fill="none" stroke="#0065BD" stroke-width="4" d="M274.681,229.013"/>
	<path id="path12-1-5" fill="none" stroke="#0065BD" stroke-width="4" d="M980.355,133.61
		c-57.011,136.623-206.938,234.165-382.922,234.165c-131.378,0-248.234-54.362-322.752-138.762"/>
	<path id="path1_1_" fill="none" stroke="#0065BD" stroke-width="4" d="M274.683,342.721"/>
	<path id="path1" fill="none" stroke="#0065BD" stroke-width="4" d="M518.303,113.462
		c-14.336,118.461-115.322,212.993-243.621,229.259"/>
	<path id="path1-5_1_" fill="none" stroke="#0065BD" stroke-width="4" d="M980.362,352.476
		c-149.277,0-271.725-105.173-283.803-239.014"/>
	<path id="path1-5_4_" fill="none" stroke="#0065BD" stroke-width="4" d="M980.362,352.476"/>
	<path id="path1-3_1_" fill="none" stroke="#0065BD" stroke-width="4" d="M980.352,416.373
		c-165.005-6.08-304.025-130.938-354.954-302.911"/>
	<path id="path1-3_3_" fill="none" stroke="#0065BD" stroke-width="4" d="M581.362,113.462
		c-45.879,154.915-163.236,271.596-306.68,297.664"/>
	<path id="path1-3_5_" fill="none" stroke="#0065BD" stroke-width="4" d="M980.352,416.373"/>
	<path id="path1-3_2_" fill="none" stroke="#0065BD" stroke-width="4" d="M625.398,113.462"/>
	<path id="path1-3-4_3_" fill="none" stroke="#0065BD" stroke-width="4" d="M578.268,113.462"/>
	<path id="path1-3-4_4_" fill="none" stroke="#0065BD" stroke-width="4" d="M578.268,113.462"/>
	<path id="path1-3-4-2_1_" fill="none" stroke="#0065BD" stroke-width="4" d="M747.602,437.344
		c-75.124-80.179-124.485-195.009-131.09-323.882"/>
	<path id="path1-3-4-2_2_" fill="none" stroke="#0065BD" stroke-width="4" d="M590.373,113.461
		c-6.606,128.873-55.967,243.703-131.09,323.882"/>
	<path id="path1-3-4-2_6_" fill="none" stroke="#0065BD" stroke-width="4" d="M747.602,437.344"/>
	<path id="path1-3-4-2-0_4_" fill="none" stroke="#0065BD" stroke-width="4" d="M594.376,113.461"/>
	<path id="path2_3_" fill="none" stroke="#0065BD" stroke-width="4" d="M605.686,437.344"/>
	<path id="path2_1_" fill="none" stroke="#0065BD" stroke-width="4" d="M602.712,113.462l2.974,323.882"/>
	<path id="path12-1-5-4_4_" fill="none" stroke="#0065BD" stroke-width="4" d="M951.438,113.462"/>
	<path id="path12-1-5-4_2_" fill="none" stroke="#0065BD" stroke-width="4" d="M274.68,174.3"/>
	<path id="path12-1-5-4" fill="none" stroke="#0065BD" stroke-width="4" d="M951.438,113.462
		c-68.916,129.177-203.485,216.889-358.207,216.889c-128.972,0-243.941-60.946-318.552-156.052"/>
</g>
</svg>
