<?xml version="1.0" encoding="utf-8"?>
<!-- Generator: Adobe Illustrator 16.0.3, SVG Export Plug-In . SVG Version: 6.00 Build 0)  -->
<!DOCTYPE svg PUBLIC "-//W3C//DTD SVG 1.1//EN" "http://www.w3.org/Graphics/SVG/1.1/DTD/svg11.dtd">
<svg version="1.1" id="svg1" xmlns:svg="http://www.w3.org/2000/svg"
	 xmlns="http://www.w3.org/2000/svg" xmlns:xlink="http://www.w3.org/1999/xlink" x="0px" y="0px" width="1275px" height="354px"
	 viewBox="0 0 1275 354" enable-background="new 0 0 1275 354" xml:space="preserve">
<path id="path1-83" stroke="#0065BD" stroke-width="6" d="M893.861,176.014H381.81"/>
<path id="path1-1" stroke="#0065BD" stroke-width="4" d="M812.623,105.831l-347.9-2.179"/>
<path id="path1-3" stroke="#0065BD" stroke-width="8" d="M1027.526,291.756l-761.457-1.508"/>
<path id="path1-1_1_" stroke="#0065BD" stroke-width="4" d="M767.063,65.464l-256.779-2.179"/>
<polygon fill="#0065BD" points="1092.851,328.271 732.726,29.952 732.726,38.495 1044.442,328.271 "/>
<polygon fill="#0065BD" points="182.15,328.271 542.275,29.952 542.275,38.495 230.558,328.271 "/>
</svg>
